G75*
G70*
%OFA0B0*%
%FSLAX24Y24*%
%IPPOS*%
%LPD*%
%AMOC8*
5,1,8,0,0,1.08239X$1,22.5*
%
%ADD10C,0.0000*%
%ADD11C,0.0780*%
%ADD12C,0.1500*%
%ADD13C,0.0356*%
D10*
X000100Y000100D02*
X000100Y019785D01*
X039470Y019785D01*
X039470Y000100D01*
X000100Y000100D01*
X000493Y001084D02*
X000495Y001132D01*
X000501Y001180D01*
X000511Y001227D01*
X000524Y001273D01*
X000542Y001318D01*
X000562Y001362D01*
X000587Y001404D01*
X000615Y001443D01*
X000645Y001480D01*
X000679Y001514D01*
X000716Y001546D01*
X000754Y001575D01*
X000795Y001600D01*
X000838Y001622D01*
X000883Y001640D01*
X000929Y001654D01*
X000976Y001665D01*
X001024Y001672D01*
X001072Y001675D01*
X001120Y001674D01*
X001168Y001669D01*
X001216Y001660D01*
X001262Y001648D01*
X001307Y001631D01*
X001351Y001611D01*
X001393Y001588D01*
X001433Y001561D01*
X001471Y001531D01*
X001506Y001498D01*
X001538Y001462D01*
X001568Y001424D01*
X001594Y001383D01*
X001616Y001340D01*
X001636Y001296D01*
X001651Y001251D01*
X001663Y001204D01*
X001671Y001156D01*
X001675Y001108D01*
X001675Y001060D01*
X001671Y001012D01*
X001663Y000964D01*
X001651Y000917D01*
X001636Y000872D01*
X001616Y000828D01*
X001594Y000785D01*
X001568Y000744D01*
X001538Y000706D01*
X001506Y000670D01*
X001471Y000637D01*
X001433Y000607D01*
X001393Y000580D01*
X001351Y000557D01*
X001307Y000537D01*
X001262Y000520D01*
X001216Y000508D01*
X001168Y000499D01*
X001120Y000494D01*
X001072Y000493D01*
X001024Y000496D01*
X000976Y000503D01*
X000929Y000514D01*
X000883Y000528D01*
X000838Y000546D01*
X000795Y000568D01*
X000754Y000593D01*
X000716Y000622D01*
X000679Y000654D01*
X000645Y000688D01*
X000615Y000725D01*
X000587Y000764D01*
X000562Y000806D01*
X000542Y000850D01*
X000524Y000895D01*
X000511Y000941D01*
X000501Y000988D01*
X000495Y001036D01*
X000493Y001084D01*
X000493Y018801D02*
X000495Y018849D01*
X000501Y018897D01*
X000511Y018944D01*
X000524Y018990D01*
X000542Y019035D01*
X000562Y019079D01*
X000587Y019121D01*
X000615Y019160D01*
X000645Y019197D01*
X000679Y019231D01*
X000716Y019263D01*
X000754Y019292D01*
X000795Y019317D01*
X000838Y019339D01*
X000883Y019357D01*
X000929Y019371D01*
X000976Y019382D01*
X001024Y019389D01*
X001072Y019392D01*
X001120Y019391D01*
X001168Y019386D01*
X001216Y019377D01*
X001262Y019365D01*
X001307Y019348D01*
X001351Y019328D01*
X001393Y019305D01*
X001433Y019278D01*
X001471Y019248D01*
X001506Y019215D01*
X001538Y019179D01*
X001568Y019141D01*
X001594Y019100D01*
X001616Y019057D01*
X001636Y019013D01*
X001651Y018968D01*
X001663Y018921D01*
X001671Y018873D01*
X001675Y018825D01*
X001675Y018777D01*
X001671Y018729D01*
X001663Y018681D01*
X001651Y018634D01*
X001636Y018589D01*
X001616Y018545D01*
X001594Y018502D01*
X001568Y018461D01*
X001538Y018423D01*
X001506Y018387D01*
X001471Y018354D01*
X001433Y018324D01*
X001393Y018297D01*
X001351Y018274D01*
X001307Y018254D01*
X001262Y018237D01*
X001216Y018225D01*
X001168Y018216D01*
X001120Y018211D01*
X001072Y018210D01*
X001024Y018213D01*
X000976Y018220D01*
X000929Y018231D01*
X000883Y018245D01*
X000838Y018263D01*
X000795Y018285D01*
X000754Y018310D01*
X000716Y018339D01*
X000679Y018371D01*
X000645Y018405D01*
X000615Y018442D01*
X000587Y018481D01*
X000562Y018523D01*
X000542Y018567D01*
X000524Y018612D01*
X000511Y018658D01*
X000501Y018705D01*
X000495Y018753D01*
X000493Y018801D01*
X037895Y018801D02*
X037897Y018849D01*
X037903Y018897D01*
X037913Y018944D01*
X037926Y018990D01*
X037944Y019035D01*
X037964Y019079D01*
X037989Y019121D01*
X038017Y019160D01*
X038047Y019197D01*
X038081Y019231D01*
X038118Y019263D01*
X038156Y019292D01*
X038197Y019317D01*
X038240Y019339D01*
X038285Y019357D01*
X038331Y019371D01*
X038378Y019382D01*
X038426Y019389D01*
X038474Y019392D01*
X038522Y019391D01*
X038570Y019386D01*
X038618Y019377D01*
X038664Y019365D01*
X038709Y019348D01*
X038753Y019328D01*
X038795Y019305D01*
X038835Y019278D01*
X038873Y019248D01*
X038908Y019215D01*
X038940Y019179D01*
X038970Y019141D01*
X038996Y019100D01*
X039018Y019057D01*
X039038Y019013D01*
X039053Y018968D01*
X039065Y018921D01*
X039073Y018873D01*
X039077Y018825D01*
X039077Y018777D01*
X039073Y018729D01*
X039065Y018681D01*
X039053Y018634D01*
X039038Y018589D01*
X039018Y018545D01*
X038996Y018502D01*
X038970Y018461D01*
X038940Y018423D01*
X038908Y018387D01*
X038873Y018354D01*
X038835Y018324D01*
X038795Y018297D01*
X038753Y018274D01*
X038709Y018254D01*
X038664Y018237D01*
X038618Y018225D01*
X038570Y018216D01*
X038522Y018211D01*
X038474Y018210D01*
X038426Y018213D01*
X038378Y018220D01*
X038331Y018231D01*
X038285Y018245D01*
X038240Y018263D01*
X038197Y018285D01*
X038156Y018310D01*
X038118Y018339D01*
X038081Y018371D01*
X038047Y018405D01*
X038017Y018442D01*
X037989Y018481D01*
X037964Y018523D01*
X037944Y018567D01*
X037926Y018612D01*
X037913Y018658D01*
X037903Y018705D01*
X037897Y018753D01*
X037895Y018801D01*
X037895Y001084D02*
X037897Y001132D01*
X037903Y001180D01*
X037913Y001227D01*
X037926Y001273D01*
X037944Y001318D01*
X037964Y001362D01*
X037989Y001404D01*
X038017Y001443D01*
X038047Y001480D01*
X038081Y001514D01*
X038118Y001546D01*
X038156Y001575D01*
X038197Y001600D01*
X038240Y001622D01*
X038285Y001640D01*
X038331Y001654D01*
X038378Y001665D01*
X038426Y001672D01*
X038474Y001675D01*
X038522Y001674D01*
X038570Y001669D01*
X038618Y001660D01*
X038664Y001648D01*
X038709Y001631D01*
X038753Y001611D01*
X038795Y001588D01*
X038835Y001561D01*
X038873Y001531D01*
X038908Y001498D01*
X038940Y001462D01*
X038970Y001424D01*
X038996Y001383D01*
X039018Y001340D01*
X039038Y001296D01*
X039053Y001251D01*
X039065Y001204D01*
X039073Y001156D01*
X039077Y001108D01*
X039077Y001060D01*
X039073Y001012D01*
X039065Y000964D01*
X039053Y000917D01*
X039038Y000872D01*
X039018Y000828D01*
X038996Y000785D01*
X038970Y000744D01*
X038940Y000706D01*
X038908Y000670D01*
X038873Y000637D01*
X038835Y000607D01*
X038795Y000580D01*
X038753Y000557D01*
X038709Y000537D01*
X038664Y000520D01*
X038618Y000508D01*
X038570Y000499D01*
X038522Y000494D01*
X038474Y000493D01*
X038426Y000496D01*
X038378Y000503D01*
X038331Y000514D01*
X038285Y000528D01*
X038240Y000546D01*
X038197Y000568D01*
X038156Y000593D01*
X038118Y000622D01*
X038081Y000654D01*
X038047Y000688D01*
X038017Y000725D01*
X037989Y000764D01*
X037964Y000806D01*
X037944Y000850D01*
X037926Y000895D01*
X037913Y000941D01*
X037903Y000988D01*
X037897Y001036D01*
X037895Y001084D01*
D11*
X033350Y002460D02*
X033350Y003240D01*
X031350Y003240D02*
X031350Y002460D01*
X029350Y002460D02*
X029350Y003240D01*
X029350Y005460D02*
X029350Y006240D01*
X031350Y006240D02*
X031350Y005460D01*
X033350Y005460D02*
X033350Y006240D01*
X023350Y006240D02*
X023350Y005460D01*
X023350Y003240D02*
X023350Y002460D01*
X015100Y002460D02*
X015100Y003240D01*
X013100Y003240D02*
X013100Y002460D01*
X011100Y002460D02*
X011100Y003240D01*
X011100Y005460D02*
X011100Y006240D01*
X013100Y006240D02*
X013100Y005460D01*
X015100Y005460D02*
X015100Y006240D01*
X005100Y006240D02*
X005100Y005460D01*
X005100Y003240D02*
X005100Y002460D01*
D12*
X015100Y002850D02*
X015850Y002850D01*
X017350Y004350D01*
X017350Y007350D01*
X011600Y013100D01*
X011600Y013600D01*
X011600Y014100D01*
X011600Y014600D01*
X011600Y015100D01*
X011600Y015600D01*
X011600Y016100D01*
X011600Y016600D01*
X009850Y015100D02*
X009850Y014850D01*
X009850Y014350D01*
X009850Y013850D01*
X009850Y013350D01*
X009850Y012850D01*
X009850Y012350D01*
X009850Y011850D01*
X009850Y011600D01*
X015100Y006350D01*
X015100Y005850D01*
X027850Y011850D02*
X027850Y012100D01*
X027850Y012600D01*
X027850Y013100D01*
X027850Y013600D01*
X027850Y014100D01*
X027850Y014600D01*
X027850Y015100D01*
X027850Y015350D01*
X029600Y015100D02*
X029600Y014600D01*
X029600Y014100D01*
X029600Y013600D01*
X029600Y013100D01*
X035600Y007100D01*
X035600Y004100D01*
X034350Y002850D01*
X033350Y002850D01*
X033350Y005850D02*
X033350Y006350D01*
X027850Y011850D01*
X029600Y015100D02*
X029600Y015600D01*
X029600Y016100D01*
X029600Y016600D01*
D13*
X029600Y016600D03*
X029600Y016100D03*
X029600Y015600D03*
X029600Y015100D03*
X029600Y014600D03*
X029600Y014100D03*
X029600Y013600D03*
X029600Y013100D03*
X027850Y013100D03*
X027850Y012600D03*
X027850Y012100D03*
X027850Y013600D03*
X027850Y014100D03*
X027850Y014600D03*
X027850Y015100D03*
X027850Y015600D03*
X011600Y015600D03*
X011600Y016100D03*
X011600Y016600D03*
X009850Y015350D03*
X009850Y014850D03*
X009850Y014350D03*
X009850Y013850D03*
X009850Y013350D03*
X009850Y012850D03*
X009850Y012350D03*
X009850Y011850D03*
X011600Y013100D03*
X011600Y013600D03*
X011600Y014100D03*
X011600Y014600D03*
X011600Y015100D03*
M02*
