solid ascii
  facet normal -4.249385e-002 -2.453384e-002 9.987955e-001
    outer loop
      vertex   -3.752777e+000 6.245005e-016 3.000000e+000
      vertex   -3.979138e+000 7.227853e-016 2.990369e+000
      vertex   -1.876388e+000 -3.250000e+000 3.000000e+000
    endloop
  endfacet
  facet normal -4.249385e-002 -2.453384e-002 9.987955e-001
    outer loop
      vertex   -1.876388e+000 -3.250000e+000 3.000000e+000
      vertex   -3.979138e+000 7.227853e-016 2.990369e+000
      vertex   -1.989569e+000 -3.446034e+000 2.990369e+000
    endloop
  endfacet
  facet normal -1.270723e-001 -7.336524e-002 9.891765e-001
    outer loop
      vertex   -1.989569e+000 -3.446034e+000 2.990369e+000
      vertex   -3.979138e+000 7.227853e-016 2.990369e+000
      vertex   -4.203319e+000 8.194553e-016 2.961571e+000
    endloop
  endfacet
  facet normal -2.104270e-001 -1.214901e-001 9.700313e-001
    outer loop
      vertex   -2.101659e+000 -3.640181e+000 2.961571e+000
      vertex   -4.203319e+000 8.194553e-016 2.961571e+000
      vertex   -4.423160e+000 9.135795e-016 2.913881e+000
    endloop
  endfacet
  facet normal -2.917552e-001 -1.684449e-001 9.415441e-001
    outer loop
      vertex   -2.211580e+000 -3.830569e+000 2.913881e+000
      vertex   -4.423160e+000 9.135795e-016 2.913881e+000
      vertex   -4.636546e+000 1.004251e-015 2.847759e+000
    endloop
  endfacet
  facet normal -3.702736e-001 -2.137775e-001 9.039893e-001
    outer loop
      vertex   -2.318273e+000 -4.015367e+000 2.847759e+000
      vertex   -4.636546e+000 1.004251e-015 2.847759e+000
      vertex   -4.841421e+000 1.090598e-015 2.763843e+000
    endloop
  endfacet
  facet normal -4.452260e-001 -2.570514e-001 8.577286e-001
    outer loop
      vertex   -2.420710e+000 -4.192793e+000 2.763843e+000
      vertex   -4.841421e+000 1.090598e-015 2.763843e+000
      vertex   -5.035811e+000 1.171788e-015 2.662939e+000
    endloop
  endfacet
  facet normal -5.158907e-001 -2.978497e-001 8.032075e-001
    outer loop
      vertex   -2.517906e+000 -4.361140e+000 2.662939e+000
      vertex   -5.035811e+000 1.171788e-015 2.662939e+000
      vertex   -5.217845e+000 1.247038e-015 2.546021e+000
    endloop
  endfacet
  facet normal -5.815871e-001 -3.357795e-001 7.409511e-001
    outer loop
      vertex   -2.608923e+000 -4.518787e+000 2.546021e+000
      vertex   -5.217845e+000 1.247038e-015 2.546021e+000
      vertex   -2.692885e+000 -4.664214e+000 2.414214e+000
    endloop
  endfacet
  facet normal -5.158907e-001 -2.978497e-001 8.032075e-001
    outer loop
      vertex   -2.608923e+000 -4.518787e+000 2.546021e+000
      vertex   -2.517906e+000 -4.361140e+000 2.662939e+000
      vertex   -5.217845e+000 1.247038e-015 2.546021e+000
    endloop
  endfacet
  facet normal -1.270723e-001 -7.336524e-002 9.891765e-001
    outer loop
      vertex   -1.989569e+000 -3.446034e+000 2.990369e+000
      vertex   -4.203319e+000 8.194553e-016 2.961571e+000
      vertex   -2.101659e+000 -3.640181e+000 2.961571e+000
    endloop
  endfacet
  facet normal -2.104270e-001 -1.214901e-001 9.700313e-001
    outer loop
      vertex   -2.101659e+000 -3.640181e+000 2.961571e+000
      vertex   -4.423160e+000 9.135795e-016 2.913881e+000
      vertex   -2.211580e+000 -3.830569e+000 2.913881e+000
    endloop
  endfacet
  facet normal -2.917552e-001 -1.684449e-001 9.415441e-001
    outer loop
      vertex   -2.211580e+000 -3.830569e+000 2.913881e+000
      vertex   -4.636546e+000 1.004251e-015 2.847759e+000
      vertex   -2.318273e+000 -4.015367e+000 2.847759e+000
    endloop
  endfacet
  facet normal -3.702736e-001 -2.137775e-001 9.039893e-001
    outer loop
      vertex   -2.318273e+000 -4.015367e+000 2.847759e+000
      vertex   -4.841421e+000 1.090598e-015 2.763843e+000
      vertex   -2.420710e+000 -4.192793e+000 2.763843e+000
    endloop
  endfacet
  facet normal -4.452260e-001 -2.570514e-001 8.577286e-001
    outer loop
      vertex   -2.420710e+000 -4.192793e+000 2.763843e+000
      vertex   -5.035811e+000 1.171788e-015 2.662939e+000
      vertex   -2.517906e+000 -4.361140e+000 2.662939e+000
    endloop
  endfacet
  facet normal -5.815871e-001 -3.357795e-001 7.409511e-001
    outer loop
      vertex   -5.217845e+000 1.247038e-015 2.546021e+000
      vertex   -5.385770e+000 1.315625e-015 2.414214e+000
      vertex   -2.692885e+000 -4.664214e+000 2.414214e+000
    endloop
  endfacet
  facet normal -6.272164e-001 -3.621235e-001 6.895405e-001
    outer loop
      vertex   -2.692885e+000 -4.664214e+000 2.414214e+000
      vertex   -5.385770e+000 1.315625e-015 2.414214e+000
      vertex   -2.731965e+000 -4.731902e+000 2.343118e+000
    endloop
  endfacet
  facet normal -6.272164e-001 -3.621235e-001 6.895405e-001
    outer loop
      vertex   -2.731965e+000 -4.731902e+000 2.343118e+000
      vertex   -5.385770e+000 1.315625e-015 2.414214e+000
      vertex   -5.463930e+000 1.347211e-015 2.343118e+000
    endloop
  endfacet
  facet normal -6.557621e-001 -3.786044e-001 6.531728e-001
    outer loop
      vertex   -2.768984e+000 -4.796021e+000 2.268787e+000
      vertex   -5.463930e+000 1.347211e-015 2.343118e+000
      vertex   -5.537968e+000 1.376888e-015 2.268787e+000
    endloop
  endfacet
  facet normal -6.827280e-001 -3.941732e-001 6.152316e-001
    outer loop
      vertex   -5.607705e+000 1.404585e-015 2.191399e+000
      vertex   -2.768984e+000 -4.796021e+000 2.268787e+000
      vertex   -5.537968e+000 1.376888e-015 2.268787e+000
    endloop
  endfacet
  facet normal -6.827280e-001 -3.941732e-001 6.152316e-001
    outer loop
      vertex   -5.607705e+000 1.404585e-015 2.191399e+000
      vertex   -2.803853e+000 -4.856415e+000 2.191399e+000
      vertex   -2.768984e+000 -4.796021e+000 2.268787e+000
    endloop
  endfacet
  facet normal -7.080492e-001 -4.087924e-001 5.758082e-001
    outer loop
      vertex   -5.607705e+000 1.404585e-015 2.191399e+000
      vertex   -2.836487e+000 -4.912939e+000 2.111140e+000
      vertex   -2.803853e+000 -4.856415e+000 2.191399e+000
    endloop
  endfacet
  facet normal -7.080492e-001 -4.087924e-001 5.758082e-001
    outer loop
      vertex   -5.607705e+000 1.404585e-015 2.191399e+000
      vertex   -5.672974e+000 1.430236e-015 2.111140e+000
      vertex   -2.836487e+000 -4.912939e+000 2.111140e+000
    endloop
  endfacet
  facet normal -7.316646e-001 -4.224268e-001 5.349976e-001
    outer loop
      vertex   -2.836487e+000 -4.912939e+000 2.111140e+000
      vertex   -5.672974e+000 1.430236e-015 2.111140e+000
      vertex   -5.733616e+000 1.453779e-015 2.028205e+000
    endloop
  endfacet
  facet normal -7.535174e-001 -4.350435e-001 4.928982e-001
    outer loop
      vertex   -2.866808e+000 -4.965457e+000 2.028205e+000
      vertex   -5.733616e+000 1.453779e-015 2.028205e+000
      vertex   -2.894743e+000 -5.013843e+000 1.942793e+000
    endloop
  endfacet
  facet normal -7.316646e-001 -4.224268e-001 5.349976e-001
    outer loop
      vertex   -2.866808e+000 -4.965457e+000 2.028205e+000
      vertex   -2.836487e+000 -4.912939e+000 2.111140e+000
      vertex   -5.733616e+000 1.453779e-015 2.028205e+000
    endloop
  endfacet
  facet normal -6.557621e-001 -3.786044e-001 6.531728e-001
    outer loop
      vertex   -2.731965e+000 -4.731902e+000 2.343118e+000
      vertex   -5.463930e+000 1.347211e-015 2.343118e+000
      vertex   -2.768984e+000 -4.796021e+000 2.268787e+000
    endloop
  endfacet
  facet normal -7.535174e-001 -4.350435e-001 4.928982e-001
    outer loop
      vertex   -5.733616e+000 1.453779e-015 2.028205e+000
      vertex   -5.789487e+000 1.475157e-015 1.942793e+000
      vertex   -2.894743e+000 -5.013843e+000 1.942793e+000
    endloop
  endfacet
  facet normal -7.735549e-001 -4.466122e-001 4.496113e-001
    outer loop
      vertex   -2.894743e+000 -5.013843e+000 1.942793e+000
      vertex   -5.789487e+000 1.475157e-015 1.942793e+000
      vertex   -5.840451e+000 1.494319e-015 1.855110e+000
    endloop
  endfacet
  facet normal -7.917289e-001 -4.571049e-001 4.052413e-001
    outer loop
      vertex   -2.920225e+000 -5.057979e+000 1.855110e+000
      vertex   -5.840451e+000 1.494319e-015 1.855110e+000
      vertex   -2.943193e+000 -5.097759e+000 1.765367e+000
    endloop
  endfacet
  facet normal -7.735549e-001 -4.466122e-001 4.496113e-001
    outer loop
      vertex   -2.920225e+000 -5.057979e+000 1.855110e+000
      vertex   -2.894743e+000 -5.013843e+000 1.942793e+000
      vertex   -5.840451e+000 1.494319e-015 1.855110e+000
    endloop
  endfacet
  facet normal -7.917289e-001 -4.571049e-001 4.052413e-001
    outer loop
      vertex   -5.840451e+000 1.494319e-015 1.855110e+000
      vertex   -5.886385e+000 1.511217e-015 1.765367e+000
      vertex   -2.943193e+000 -5.097759e+000 1.765367e+000
    endloop
  endfacet
  facet normal -8.079955e-001 -4.664964e-001 3.598950e-001
    outer loop
      vertex   -2.943193e+000 -5.097759e+000 1.765367e+000
      vertex   -5.886385e+000 1.511217e-015 1.765367e+000
      vertex   -5.927180e+000 1.525813e-015 1.673780e+000
    endloop
  endfacet
  facet normal -8.223155e-001 -4.747641e-001 3.136817e-001
    outer loop
      vertex   -2.963590e+000 -5.133088e+000 1.673780e+000
      vertex   -5.927180e+000 1.525813e-015 1.673780e+000
      vertex   -2.981368e+000 -5.163881e+000 1.580569e+000
    endloop
  endfacet
  facet normal -8.079955e-001 -4.664964e-001 3.598950e-001
    outer loop
      vertex   -2.963590e+000 -5.133088e+000 1.673780e+000
      vertex   -2.943193e+000 -5.097759e+000 1.765367e+000
      vertex   -5.927180e+000 1.525813e-015 1.673780e+000
    endloop
  endfacet
  facet normal -8.223155e-001 -4.747641e-001 3.136817e-001
    outer loop
      vertex   -5.927180e+000 1.525813e-015 1.673780e+000
      vertex   -5.962736e+000 1.538070e-015 1.580569e+000
      vertex   -2.981368e+000 -5.163881e+000 1.580569e+000
    endloop
  endfacet
  facet normal -8.346546e-001 -4.818880e-001 2.667128e-001
    outer loop
      vertex   -2.981368e+000 -5.163881e+000 1.580569e+000
      vertex   -5.962736e+000 1.538070e-015 1.580569e+000
      vertex   -5.992968e+000 1.547959e-015 1.485960e+000
    endloop
  endfacet
  facet normal -8.449828e-001 -4.878511e-001 2.191012e-001
    outer loop
      vertex   -2.996484e+000 -5.190063e+000 1.485960e+000
      vertex   -5.992968e+000 1.547959e-015 1.485960e+000
      vertex   -3.008902e+000 -5.211571e+000 1.390181e+000
    endloop
  endfacet
  facet normal -8.346546e-001 -4.818880e-001 2.667128e-001
    outer loop
      vertex   -2.996484e+000 -5.190063e+000 1.485960e+000
      vertex   -2.981368e+000 -5.163881e+000 1.580569e+000
      vertex   -5.992968e+000 1.547959e-015 1.485960e+000
    endloop
  endfacet
  facet normal -8.449828e-001 -4.878511e-001 2.191012e-001
    outer loop
      vertex   -5.992968e+000 1.547959e-015 1.485960e+000
      vertex   -6.017803e+000 1.555456e-015 1.390181e+000
      vertex   -3.008902e+000 -5.211571e+000 1.390181e+000
    endloop
  endfacet
  facet normal -8.532755e-001 -4.926388e-001 1.709619e-001
    outer loop
      vertex   -3.008902e+000 -5.211571e+000 1.390181e+000
      vertex   -6.017803e+000 1.555456e-015 1.390181e+000
      vertex   -6.037182e+000 1.560543e-015 1.293461e+000
    endloop
  endfacet
  facet normal -8.595125e-001 -4.962398e-001 1.224107e-001
    outer loop
      vertex   -3.018591e+000 -5.228353e+000 1.293461e+000
      vertex   -6.037182e+000 1.560543e-015 1.293461e+000
      vertex   -3.025529e+000 -5.240369e+000 1.196034e+000
    endloop
  endfacet
  facet normal -8.532755e-001 -4.926388e-001 1.709619e-001
    outer loop
      vertex   -3.018591e+000 -5.228353e+000 1.293461e+000
      vertex   -3.008902e+000 -5.211571e+000 1.390181e+000
      vertex   -6.037182e+000 1.560543e-015 1.293461e+000
    endloop
  endfacet
  facet normal -8.595125e-001 -4.962398e-001 1.224107e-001
    outer loop
      vertex   -6.037182e+000 1.560543e-015 1.293461e+000
      vertex   -6.051057e+000 1.563208e-015 1.196034e+000
      vertex   -3.025529e+000 -5.240369e+000 1.196034e+000
    endloop
  endfacet
  facet normal -8.636789e-001 -4.986452e-001 7.356456e-002
    outer loop
      vertex   -3.025529e+000 -5.240369e+000 1.196034e+000
      vertex   -6.051057e+000 1.563208e-015 1.196034e+000
      vertex   -6.059396e+000 1.563444e-015 1.098135e+000
    endloop
  endfacet
  facet normal -8.657646e-001 -4.998494e-001 2.454123e-002
    outer loop
      vertex   -3.029698e+000 -5.247591e+000 1.098135e+000
      vertex   -6.059396e+000 1.563444e-015 1.098135e+000
      vertex   -3.031089e+000 -5.250000e+000 1.000000e+000
    endloop
  endfacet
  facet normal -8.636789e-001 -4.986452e-001 7.356456e-002
    outer loop
      vertex   -3.029698e+000 -5.247591e+000 1.098135e+000
      vertex   -3.025529e+000 -5.240369e+000 1.196034e+000
      vertex   -6.059396e+000 1.563444e-015 1.098135e+000
    endloop
  endfacet
  facet normal -8.657646e-001 -4.998494e-001 2.454123e-002
    outer loop
      vertex   -6.059396e+000 1.563444e-015 1.098135e+000
      vertex   -6.062178e+000 1.561251e-015 1.000000e+000
      vertex   -3.031089e+000 -5.250000e+000 1.000000e+000
    endloop
  endfacet
  facet normal -4.249385e-002 2.453384e-002 9.987955e-001
    outer loop
      vertex   -1.876388e+000 3.250000e+000 3.000000e+000
      vertex   -1.989569e+000 3.446034e+000 2.990369e+000
      vertex   -3.752777e+000 6.245005e-016 3.000000e+000
    endloop
  endfacet
  facet normal -4.249385e-002 2.453384e-002 9.987955e-001
    outer loop
      vertex   -3.752777e+000 6.245005e-016 3.000000e+000
      vertex   -1.989569e+000 3.446034e+000 2.990369e+000
      vertex   -3.979138e+000 7.227853e-016 2.990369e+000
    endloop
  endfacet
  facet normal -1.270723e-001 7.336524e-002 9.891765e-001
    outer loop
      vertex   -3.979138e+000 7.227853e-016 2.990369e+000
      vertex   -1.989569e+000 3.446034e+000 2.990369e+000
      vertex   -2.101659e+000 3.640181e+000 2.961571e+000
    endloop
  endfacet
  facet normal -2.104270e-001 1.214901e-001 9.700313e-001
    outer loop
      vertex   -4.203319e+000 8.194553e-016 2.961571e+000
      vertex   -2.101659e+000 3.640181e+000 2.961571e+000
      vertex   -2.211580e+000 3.830569e+000 2.913881e+000
    endloop
  endfacet
  facet normal -2.917552e-001 1.684449e-001 9.415441e-001
    outer loop
      vertex   -4.423160e+000 9.135795e-016 2.913881e+000
      vertex   -2.211580e+000 3.830569e+000 2.913881e+000
      vertex   -2.318273e+000 4.015367e+000 2.847759e+000
    endloop
  endfacet
  facet normal -3.702736e-001 2.137775e-001 9.039893e-001
    outer loop
      vertex   -4.636546e+000 1.004251e-015 2.847759e+000
      vertex   -2.318273e+000 4.015367e+000 2.847759e+000
      vertex   -2.420710e+000 4.192793e+000 2.763843e+000
    endloop
  endfacet
  facet normal -4.452260e-001 2.570514e-001 8.577286e-001
    outer loop
      vertex   -4.841421e+000 1.090598e-015 2.763843e+000
      vertex   -2.420710e+000 4.192793e+000 2.763843e+000
      vertex   -2.517906e+000 4.361140e+000 2.662939e+000
    endloop
  endfacet
  facet normal -5.158907e-001 2.978497e-001 8.032075e-001
    outer loop
      vertex   -5.035811e+000 1.171788e-015 2.662939e+000
      vertex   -2.517906e+000 4.361140e+000 2.662939e+000
      vertex   -2.608923e+000 4.518787e+000 2.546021e+000
    endloop
  endfacet
  facet normal -5.815871e-001 3.357795e-001 7.409511e-001
    outer loop
      vertex   -5.217845e+000 1.247038e-015 2.546021e+000
      vertex   -2.608923e+000 4.518787e+000 2.546021e+000
      vertex   -5.385770e+000 1.315625e-015 2.414214e+000
    endloop
  endfacet
  facet normal -5.158907e-001 2.978497e-001 8.032075e-001
    outer loop
      vertex   -5.217845e+000 1.247038e-015 2.546021e+000
      vertex   -5.035811e+000 1.171788e-015 2.662939e+000
      vertex   -2.608923e+000 4.518787e+000 2.546021e+000
    endloop
  endfacet
  facet normal -1.270723e-001 7.336524e-002 9.891765e-001
    outer loop
      vertex   -3.979138e+000 7.227853e-016 2.990369e+000
      vertex   -2.101659e+000 3.640181e+000 2.961571e+000
      vertex   -4.203319e+000 8.194553e-016 2.961571e+000
    endloop
  endfacet
  facet normal -2.104270e-001 1.214901e-001 9.700313e-001
    outer loop
      vertex   -4.203319e+000 8.194553e-016 2.961571e+000
      vertex   -2.211580e+000 3.830569e+000 2.913881e+000
      vertex   -4.423160e+000 9.135795e-016 2.913881e+000
    endloop
  endfacet
  facet normal -2.917552e-001 1.684449e-001 9.415441e-001
    outer loop
      vertex   -4.423160e+000 9.135795e-016 2.913881e+000
      vertex   -2.318273e+000 4.015367e+000 2.847759e+000
      vertex   -4.636546e+000 1.004251e-015 2.847759e+000
    endloop
  endfacet
  facet normal -3.702736e-001 2.137775e-001 9.039893e-001
    outer loop
      vertex   -4.636546e+000 1.004251e-015 2.847759e+000
      vertex   -2.420710e+000 4.192793e+000 2.763843e+000
      vertex   -4.841421e+000 1.090598e-015 2.763843e+000
    endloop
  endfacet
  facet normal -4.452260e-001 2.570514e-001 8.577286e-001
    outer loop
      vertex   -4.841421e+000 1.090598e-015 2.763843e+000
      vertex   -2.517906e+000 4.361140e+000 2.662939e+000
      vertex   -5.035811e+000 1.171788e-015 2.662939e+000
    endloop
  endfacet
  facet normal -5.815871e-001 3.357795e-001 7.409511e-001
    outer loop
      vertex   -2.608923e+000 4.518787e+000 2.546021e+000
      vertex   -2.692885e+000 4.664214e+000 2.414214e+000
      vertex   -5.385770e+000 1.315625e-015 2.414214e+000
    endloop
  endfacet
  facet normal -6.272164e-001 3.621235e-001 6.895405e-001
    outer loop
      vertex   -5.385770e+000 1.315625e-015 2.414214e+000
      vertex   -2.692885e+000 4.664214e+000 2.414214e+000
      vertex   -5.463930e+000 1.347211e-015 2.343118e+000
    endloop
  endfacet
  facet normal -6.272164e-001 3.621235e-001 6.895405e-001
    outer loop
      vertex   -5.463930e+000 1.347211e-015 2.343118e+000
      vertex   -2.692885e+000 4.664214e+000 2.414214e+000
      vertex   -2.731965e+000 4.731902e+000 2.343118e+000
    endloop
  endfacet
  facet normal -6.557621e-001 3.786044e-001 6.531728e-001
    outer loop
      vertex   -5.537968e+000 1.376888e-015 2.268787e+000
      vertex   -2.731965e+000 4.731902e+000 2.343118e+000
      vertex   -2.768984e+000 4.796021e+000 2.268787e+000
    endloop
  endfacet
  facet normal -6.827280e-001 3.941732e-001 6.152316e-001
    outer loop
      vertex   -2.803853e+000 4.856415e+000 2.191399e+000
      vertex   -5.537968e+000 1.376888e-015 2.268787e+000
      vertex   -2.768984e+000 4.796021e+000 2.268787e+000
    endloop
  endfacet
  facet normal -6.827280e-001 3.941732e-001 6.152316e-001
    outer loop
      vertex   -2.803853e+000 4.856415e+000 2.191399e+000
      vertex   -5.607705e+000 1.404585e-015 2.191399e+000
      vertex   -5.537968e+000 1.376888e-015 2.268787e+000
    endloop
  endfacet
  facet normal -7.080492e-001 4.087924e-001 5.758082e-001
    outer loop
      vertex   -2.803853e+000 4.856415e+000 2.191399e+000
      vertex   -5.672974e+000 1.430236e-015 2.111140e+000
      vertex   -5.607705e+000 1.404585e-015 2.191399e+000
    endloop
  endfacet
  facet normal -7.080492e-001 4.087924e-001 5.758082e-001
    outer loop
      vertex   -2.803853e+000 4.856415e+000 2.191399e+000
      vertex   -2.836487e+000 4.912939e+000 2.111140e+000
      vertex   -5.672974e+000 1.430236e-015 2.111140e+000
    endloop
  endfacet
  facet normal -7.316646e-001 4.224268e-001 5.349976e-001
    outer loop
      vertex   -5.672974e+000 1.430236e-015 2.111140e+000
      vertex   -2.836487e+000 4.912939e+000 2.111140e+000
      vertex   -2.866808e+000 4.965457e+000 2.028205e+000
    endloop
  endfacet
  facet normal -7.535174e-001 4.350435e-001 4.928982e-001
    outer loop
      vertex   -5.733616e+000 1.453779e-015 2.028205e+000
      vertex   -2.866808e+000 4.965457e+000 2.028205e+000
      vertex   -5.789487e+000 1.475157e-015 1.942793e+000
    endloop
  endfacet
  facet normal -7.316646e-001 4.224268e-001 5.349976e-001
    outer loop
      vertex   -5.733616e+000 1.453779e-015 2.028205e+000
      vertex   -5.672974e+000 1.430236e-015 2.111140e+000
      vertex   -2.866808e+000 4.965457e+000 2.028205e+000
    endloop
  endfacet
  facet normal -6.557621e-001 3.786044e-001 6.531728e-001
    outer loop
      vertex   -5.463930e+000 1.347211e-015 2.343118e+000
      vertex   -2.731965e+000 4.731902e+000 2.343118e+000
      vertex   -5.537968e+000 1.376888e-015 2.268787e+000
    endloop
  endfacet
  facet normal -7.535174e-001 4.350435e-001 4.928982e-001
    outer loop
      vertex   -2.866808e+000 4.965457e+000 2.028205e+000
      vertex   -2.894743e+000 5.013843e+000 1.942793e+000
      vertex   -5.789487e+000 1.475157e-015 1.942793e+000
    endloop
  endfacet
  facet normal -7.735549e-001 4.466122e-001 4.496113e-001
    outer loop
      vertex   -5.789487e+000 1.475157e-015 1.942793e+000
      vertex   -2.894743e+000 5.013843e+000 1.942793e+000
      vertex   -2.920225e+000 5.057979e+000 1.855110e+000
    endloop
  endfacet
  facet normal -7.917289e-001 4.571049e-001 4.052413e-001
    outer loop
      vertex   -5.840451e+000 1.494319e-015 1.855110e+000
      vertex   -2.920225e+000 5.057979e+000 1.855110e+000
      vertex   -5.886385e+000 1.511217e-015 1.765367e+000
    endloop
  endfacet
  facet normal -7.735549e-001 4.466122e-001 4.496113e-001
    outer loop
      vertex   -5.840451e+000 1.494319e-015 1.855110e+000
      vertex   -5.789487e+000 1.475157e-015 1.942793e+000
      vertex   -2.920225e+000 5.057979e+000 1.855110e+000
    endloop
  endfacet
  facet normal -7.917289e-001 4.571049e-001 4.052413e-001
    outer loop
      vertex   -2.920225e+000 5.057979e+000 1.855110e+000
      vertex   -2.943193e+000 5.097759e+000 1.765367e+000
      vertex   -5.886385e+000 1.511217e-015 1.765367e+000
    endloop
  endfacet
  facet normal -8.079955e-001 4.664964e-001 3.598950e-001
    outer loop
      vertex   -5.886385e+000 1.511217e-015 1.765367e+000
      vertex   -2.943193e+000 5.097759e+000 1.765367e+000
      vertex   -2.963590e+000 5.133088e+000 1.673780e+000
    endloop
  endfacet
  facet normal -8.223155e-001 4.747641e-001 3.136817e-001
    outer loop
      vertex   -5.927180e+000 1.525813e-015 1.673780e+000
      vertex   -2.963590e+000 5.133088e+000 1.673780e+000
      vertex   -5.962736e+000 1.538070e-015 1.580569e+000
    endloop
  endfacet
  facet normal -8.079955e-001 4.664964e-001 3.598950e-001
    outer loop
      vertex   -5.927180e+000 1.525813e-015 1.673780e+000
      vertex   -5.886385e+000 1.511217e-015 1.765367e+000
      vertex   -2.963590e+000 5.133088e+000 1.673780e+000
    endloop
  endfacet
  facet normal -8.223155e-001 4.747641e-001 3.136817e-001
    outer loop
      vertex   -2.963590e+000 5.133088e+000 1.673780e+000
      vertex   -2.981368e+000 5.163881e+000 1.580569e+000
      vertex   -5.962736e+000 1.538070e-015 1.580569e+000
    endloop
  endfacet
  facet normal -8.346546e-001 4.818880e-001 2.667128e-001
    outer loop
      vertex   -5.962736e+000 1.538070e-015 1.580569e+000
      vertex   -2.981368e+000 5.163881e+000 1.580569e+000
      vertex   -2.996484e+000 5.190063e+000 1.485960e+000
    endloop
  endfacet
  facet normal -8.449828e-001 4.878511e-001 2.191012e-001
    outer loop
      vertex   -5.992968e+000 1.547959e-015 1.485960e+000
      vertex   -2.996484e+000 5.190063e+000 1.485960e+000
      vertex   -6.017803e+000 1.555456e-015 1.390181e+000
    endloop
  endfacet
  facet normal -8.346546e-001 4.818880e-001 2.667128e-001
    outer loop
      vertex   -5.992968e+000 1.547959e-015 1.485960e+000
      vertex   -5.962736e+000 1.538070e-015 1.580569e+000
      vertex   -2.996484e+000 5.190063e+000 1.485960e+000
    endloop
  endfacet
  facet normal -8.449828e-001 4.878511e-001 2.191012e-001
    outer loop
      vertex   -2.996484e+000 5.190063e+000 1.485960e+000
      vertex   -3.008902e+000 5.211571e+000 1.390181e+000
      vertex   -6.017803e+000 1.555456e-015 1.390181e+000
    endloop
  endfacet
  facet normal -8.532755e-001 4.926388e-001 1.709619e-001
    outer loop
      vertex   -6.017803e+000 1.555456e-015 1.390181e+000
      vertex   -3.008902e+000 5.211571e+000 1.390181e+000
      vertex   -3.018591e+000 5.228353e+000 1.293461e+000
    endloop
  endfacet
  facet normal -8.595125e-001 4.962398e-001 1.224107e-001
    outer loop
      vertex   -6.037182e+000 1.560543e-015 1.293461e+000
      vertex   -3.018591e+000 5.228353e+000 1.293461e+000
      vertex   -6.051057e+000 1.563208e-015 1.196034e+000
    endloop
  endfacet
  facet normal -8.532755e-001 4.926388e-001 1.709619e-001
    outer loop
      vertex   -6.037182e+000 1.560543e-015 1.293461e+000
      vertex   -6.017803e+000 1.555456e-015 1.390181e+000
      vertex   -3.018591e+000 5.228353e+000 1.293461e+000
    endloop
  endfacet
  facet normal -8.595125e-001 4.962398e-001 1.224107e-001
    outer loop
      vertex   -3.018591e+000 5.228353e+000 1.293461e+000
      vertex   -3.025529e+000 5.240369e+000 1.196034e+000
      vertex   -6.051057e+000 1.563208e-015 1.196034e+000
    endloop
  endfacet
  facet normal -8.636789e-001 4.986452e-001 7.356456e-002
    outer loop
      vertex   -6.051057e+000 1.563208e-015 1.196034e+000
      vertex   -3.025529e+000 5.240369e+000 1.196034e+000
      vertex   -3.029698e+000 5.247591e+000 1.098135e+000
    endloop
  endfacet
  facet normal -8.657646e-001 4.998494e-001 2.454123e-002
    outer loop
      vertex   -6.059396e+000 1.563444e-015 1.098135e+000
      vertex   -3.029698e+000 5.247591e+000 1.098135e+000
      vertex   -6.062178e+000 1.561251e-015 1.000000e+000
    endloop
  endfacet
  facet normal -8.636789e-001 4.986452e-001 7.356456e-002
    outer loop
      vertex   -6.059396e+000 1.563444e-015 1.098135e+000
      vertex   -6.051057e+000 1.563208e-015 1.196034e+000
      vertex   -3.029698e+000 5.247591e+000 1.098135e+000
    endloop
  endfacet
  facet normal -8.657646e-001 4.998494e-001 2.454123e-002
    outer loop
      vertex   -3.029698e+000 5.247591e+000 1.098135e+000
      vertex   -3.031089e+000 5.250000e+000 1.000000e+000
      vertex   -6.062178e+000 1.561251e-015 1.000000e+000
    endloop
  endfacet
  facet normal 0.000000e+000 4.906767e-002 9.987955e-001
    outer loop
      vertex   1.876388e+000 3.250000e+000 3.000000e+000
      vertex   1.989569e+000 3.446034e+000 2.990369e+000
      vertex   -1.876388e+000 3.250000e+000 3.000000e+000
    endloop
  endfacet
  facet normal -5.476168e-018 4.906767e-002 9.987955e-001
    outer loop
      vertex   -1.876388e+000 3.250000e+000 3.000000e+000
      vertex   1.989569e+000 3.446034e+000 2.990369e+000
      vertex   -1.989569e+000 3.446034e+000 2.990369e+000
    endloop
  endfacet
  facet normal -1.637576e-017 1.467305e-001 9.891765e-001
    outer loop
      vertex   -1.989569e+000 3.446034e+000 2.990369e+000
      vertex   1.989569e+000 3.446034e+000 2.990369e+000
      vertex   2.101659e+000 3.640181e+000 2.961571e+000
    endloop
  endfacet
  facet normal -0.000000e+000 2.429802e-001 9.700313e-001
    outer loop
      vertex   -2.101659e+000 3.640181e+000 2.961571e+000
      vertex   2.101659e+000 3.640181e+000 2.961571e+000
      vertex   2.211580e+000 3.830569e+000 2.913881e+000
    endloop
  endfacet
  facet normal -1.214156e-016 3.368899e-001 9.415441e-001
    outer loop
      vertex   -2.211580e+000 3.830569e+000 2.913881e+000
      vertex   2.211580e+000 3.830569e+000 2.913881e+000
      vertex   2.318273e+000 4.015367e+000 2.847759e+000
    endloop
  endfacet
  facet normal -1.731685e-016 4.275551e-001 9.039893e-001
    outer loop
      vertex   -2.318273e+000 4.015367e+000 2.847759e+000
      vertex   2.318273e+000 4.015367e+000 2.847759e+000
      vertex   2.420710e+000 4.192793e+000 2.763843e+000
    endloop
  endfacet
  facet normal 1.886285e-016 5.141027e-001 8.577286e-001
    outer loop
      vertex   -2.420710e+000 4.192793e+000 2.763843e+000
      vertex   2.420710e+000 4.192793e+000 2.763843e+000
      vertex   2.517906e+000 4.361140e+000 2.662939e+000
    endloop
  endfacet
  facet normal 1.392981e-016 5.956993e-001 8.032075e-001
    outer loop
      vertex   -2.517906e+000 4.361140e+000 2.662939e+000
      vertex   2.517906e+000 4.361140e+000 2.662939e+000
      vertex   2.608923e+000 4.518787e+000 2.546021e+000
    endloop
  endfacet
  facet normal 5.125023e-017 6.715590e-001 7.409511e-001
    outer loop
      vertex   -2.608923e+000 4.518787e+000 2.546021e+000
      vertex   2.608923e+000 4.518787e+000 2.546021e+000
      vertex   -2.692885e+000 4.664214e+000 2.414214e+000
    endloop
  endfacet
  facet normal 3.387767e-017 5.956993e-001 8.032075e-001
    outer loop
      vertex   -2.608923e+000 4.518787e+000 2.546021e+000
      vertex   -2.517906e+000 4.361140e+000 2.662939e+000
      vertex   2.608923e+000 4.518787e+000 2.546021e+000
    endloop
  endfacet
  facet normal 0.000000e+000 1.467305e-001 9.891765e-001
    outer loop
      vertex   -1.989569e+000 3.446034e+000 2.990369e+000
      vertex   2.101659e+000 3.640181e+000 2.961571e+000
      vertex   -2.101659e+000 3.640181e+000 2.961571e+000
    endloop
  endfacet
  facet normal -1.459931e-016 2.429802e-001 9.700313e-001
    outer loop
      vertex   -2.101659e+000 3.640181e+000 2.961571e+000
      vertex   2.211580e+000 3.830569e+000 2.913881e+000
      vertex   -2.211580e+000 3.830569e+000 2.913881e+000
    endloop
  endfacet
  facet normal -1.803625e-016 3.368899e-001 9.415441e-001
    outer loop
      vertex   -2.211580e+000 3.830569e+000 2.913881e+000
      vertex   2.318273e+000 4.015367e+000 2.847759e+000
      vertex   -2.318273e+000 4.015367e+000 2.847759e+000
    endloop
  endfacet
  facet normal 1.568735e-016 4.275551e-001 9.039893e-001
    outer loop
      vertex   -2.318273e+000 4.015367e+000 2.847759e+000
      vertex   2.420710e+000 4.192793e+000 2.763843e+000
      vertex   -2.420710e+000 4.192793e+000 2.763843e+000
    endloop
  endfacet
  facet normal 1.057073e-016 5.141027e-001 8.577286e-001
    outer loop
      vertex   -2.420710e+000 4.192793e+000 2.763843e+000
      vertex   2.517906e+000 4.361140e+000 2.662939e+000
      vertex   -2.517906e+000 4.361140e+000 2.662939e+000
    endloop
  endfacet
  facet normal 1.107482e-016 6.715590e-001 7.409511e-001
    outer loop
      vertex   2.608923e+000 4.518787e+000 2.546021e+000
      vertex   2.692885e+000 4.664214e+000 2.414214e+000
      vertex   -2.692885e+000 4.664214e+000 2.414214e+000
    endloop
  endfacet
  facet normal 1.194371e-016 7.242471e-001 6.895405e-001
    outer loop
      vertex   -2.692885e+000 4.664214e+000 2.414214e+000
      vertex   2.692885e+000 4.664214e+000 2.414214e+000
      vertex   -2.731965e+000 4.731902e+000 2.343118e+000
    endloop
  endfacet
  facet normal 6.306718e-017 7.242471e-001 6.895405e-001
    outer loop
      vertex   -2.731965e+000 4.731902e+000 2.343118e+000
      vertex   2.692885e+000 4.664214e+000 2.414214e+000
      vertex   2.731965e+000 4.731902e+000 2.343118e+000
    endloop
  endfacet
  facet normal 1.212571e-016 7.572088e-001 6.531728e-001
    outer loop
      vertex   -2.768984e+000 4.796021e+000 2.268787e+000
      vertex   2.731965e+000 4.731902e+000 2.343118e+000
      vertex   2.768984e+000 4.796021e+000 2.268787e+000
    endloop
  endfacet
  facet normal 1.264349e-016 7.883464e-001 6.152316e-001
    outer loop
      vertex   2.803853e+000 4.856415e+000 2.191399e+000
      vertex   -2.768984e+000 4.796021e+000 2.268787e+000
      vertex   2.768984e+000 4.796021e+000 2.268787e+000
    endloop
  endfacet
  facet normal 2.497251e-016 7.883464e-001 6.152316e-001
    outer loop
      vertex   2.803853e+000 4.856415e+000 2.191399e+000
      vertex   -2.803853e+000 4.856415e+000 2.191399e+000
      vertex   -2.768984e+000 4.796021e+000 2.268787e+000
    endloop
  endfacet
  facet normal 2.599817e-016 8.175848e-001 5.758082e-001
    outer loop
      vertex   2.803853e+000 4.856415e+000 2.191399e+000
      vertex   -2.836487e+000 4.912939e+000 2.111140e+000
      vertex   -2.803853e+000 4.856415e+000 2.191399e+000
    endloop
  endfacet
  facet normal 2.109321e-016 8.175848e-001 5.758082e-001
    outer loop
      vertex   2.803853e+000 4.856415e+000 2.191399e+000
      vertex   2.836487e+000 4.912939e+000 2.111140e+000
      vertex   -2.836487e+000 4.912939e+000 2.111140e+000
    endloop
  endfacet
  facet normal 2.226654e-016 8.448536e-001 5.349976e-001
    outer loop
      vertex   -2.836487e+000 4.912939e+000 2.111140e+000
      vertex   2.836487e+000 4.912939e+000 2.111140e+000
      vertex   2.866808e+000 4.965457e+000 2.028205e+000
    endloop
  endfacet
  facet normal 2.695655e-016 8.700870e-001 4.928982e-001
    outer loop
      vertex   -2.866808e+000 4.965457e+000 2.028205e+000
      vertex   2.866808e+000 4.965457e+000 2.028205e+000
      vertex   -2.894743e+000 5.013843e+000 1.942793e+000
    endloop
  endfacet
  facet normal 2.619777e-016 8.448536e-001 5.349976e-001
    outer loop
      vertex   -2.866808e+000 4.965457e+000 2.028205e+000
      vertex   -2.836487e+000 4.912939e+000 2.111140e+000
      vertex   2.866808e+000 4.965457e+000 2.028205e+000
    endloop
  endfacet
  facet normal 6.999898e-017 7.572088e-001 6.531728e-001
    outer loop
      vertex   -2.731965e+000 4.731902e+000 2.343118e+000
      vertex   2.731965e+000 4.731902e+000 2.343118e+000
      vertex   -2.768984e+000 4.796021e+000 2.268787e+000
    endloop
  endfacet
  facet normal 2.669641e-016 8.700870e-001 4.928982e-001
    outer loop
      vertex   2.866808e+000 4.965457e+000 2.028205e+000
      vertex   2.894743e+000 5.013843e+000 1.942793e+000
      vertex   -2.894743e+000 5.013843e+000 1.942793e+000
    endloop
  endfacet
  facet normal 2.740632e-016 8.932243e-001 4.496113e-001
    outer loop
      vertex   -2.894743e+000 5.013843e+000 1.942793e+000
      vertex   2.894743e+000 5.013843e+000 1.942793e+000
      vertex   2.920225e+000 5.057979e+000 1.855110e+000
    endloop
  endfacet
  facet normal 1.236206e-016 9.142098e-001 4.052413e-001
    outer loop
      vertex   -2.920225e+000 5.057979e+000 1.855110e+000
      vertex   2.920225e+000 5.057979e+000 1.855110e+000
      vertex   -2.943193e+000 5.097759e+000 1.765367e+000
    endloop
  endfacet
  facet normal 1.187592e-016 8.932243e-001 4.496113e-001
    outer loop
      vertex   -2.920225e+000 5.057979e+000 1.855110e+000
      vertex   -2.894743e+000 5.013843e+000 1.942793e+000
      vertex   2.920225e+000 5.057979e+000 1.855110e+000
    endloop
  endfacet
  facet normal -3.057280e-017 9.142098e-001 4.052413e-001
    outer loop
      vertex   2.920225e+000 5.057979e+000 1.855110e+000
      vertex   2.943193e+000 5.097759e+000 1.765367e+000
      vertex   -2.943193e+000 5.097759e+000 1.765367e+000
    endloop
  endfacet
  facet normal -2.715172e-017 9.329928e-001 3.598950e-001
    outer loop
      vertex   -2.943193e+000 5.097759e+000 1.765367e+000
      vertex   2.943193e+000 5.097759e+000 1.765367e+000
      vertex   2.963590e+000 5.133088e+000 1.673780e+000
    endloop
  endfacet
  facet normal 1.305341e-016 9.495282e-001 3.136817e-001
    outer loop
      vertex   -2.963590e+000 5.133088e+000 1.673780e+000
      vertex   2.963590e+000 5.133088e+000 1.673780e+000
      vertex   -2.981368e+000 5.163881e+000 1.580569e+000
    endloop
  endfacet
  facet normal 1.267111e-016 9.329928e-001 3.598950e-001
    outer loop
      vertex   -2.963590e+000 5.133088e+000 1.673780e+000
      vertex   -2.943193e+000 5.097759e+000 1.765367e+000
      vertex   2.963590e+000 5.133088e+000 1.673780e+000
    endloop
  endfacet
  facet normal 1.297557e-016 9.495282e-001 3.136817e-001
    outer loop
      vertex   2.963590e+000 5.133088e+000 1.673780e+000
      vertex   2.981368e+000 5.163881e+000 1.580569e+000
      vertex   -2.981368e+000 5.163881e+000 1.580569e+000
    endloop
  endfacet
  facet normal 1.336271e-016 9.637761e-001 2.667128e-001
    outer loop
      vertex   -2.981368e+000 5.163881e+000 1.580569e+000
      vertex   2.981368e+000 5.163881e+000 1.580569e+000
      vertex   2.996484e+000 5.190063e+000 1.485960e+000
    endloop
  endfacet
  facet normal 1.364845e-016 9.757021e-001 2.191012e-001
    outer loop
      vertex   -2.996484e+000 5.190063e+000 1.485960e+000
      vertex   2.996484e+000 5.190063e+000 1.485960e+000
      vertex   -3.008902e+000 5.211571e+000 1.390181e+000
    endloop
  endfacet
  facet normal 1.326919e-016 9.637761e-001 2.667128e-001
    outer loop
      vertex   -2.996484e+000 5.190063e+000 1.485960e+000
      vertex   -2.981368e+000 5.163881e+000 1.580569e+000
      vertex   2.996484e+000 5.190063e+000 1.485960e+000
    endloop
  endfacet
  facet normal 1.440056e-016 9.757021e-001 2.191012e-001
    outer loop
      vertex   2.996484e+000 5.190063e+000 1.485960e+000
      vertex   3.008902e+000 5.211571e+000 1.390181e+000
      vertex   -3.008902e+000 5.211571e+000 1.390181e+000
    endloop
  endfacet
  facet normal 1.454189e-016 9.852776e-001 1.709619e-001
    outer loop
      vertex   -3.008902e+000 5.211571e+000 1.390181e+000
      vertex   3.008902e+000 5.211571e+000 1.390181e+000
      vertex   3.018591e+000 5.228353e+000 1.293461e+000
    endloop
  endfacet
  facet normal -0.000000e+000 9.924795e-001 1.224107e-001
    outer loop
      vertex   -3.018591e+000 5.228353e+000 1.293461e+000
      vertex   3.018591e+000 5.228353e+000 1.293461e+000
      vertex   -3.025529e+000 5.240369e+000 1.196034e+000
    endloop
  endfacet
  facet normal 0.000000e+000 9.852776e-001 1.709619e-001
    outer loop
      vertex   -3.018591e+000 5.228353e+000 1.293461e+000
      vertex   -3.008902e+000 5.211571e+000 1.390181e+000
      vertex   3.018591e+000 5.228353e+000 1.293461e+000
    endloop
  endfacet
  facet normal 0.000000e+000 9.924795e-001 1.224107e-001
    outer loop
      vertex   3.018591e+000 5.228353e+000 1.293461e+000
      vertex   3.025529e+000 5.240369e+000 1.196034e+000
      vertex   -3.025529e+000 5.240369e+000 1.196034e+000
    endloop
  endfacet
  facet normal -0.000000e+000 9.972905e-001 7.356456e-002
    outer loop
      vertex   -3.025529e+000 5.240369e+000 1.196034e+000
      vertex   3.025529e+000 5.240369e+000 1.196034e+000
      vertex   3.029698e+000 5.247591e+000 1.098135e+000
    endloop
  endfacet
  facet normal -0.000000e+000 9.996988e-001 2.454123e-002
    outer loop
      vertex   -3.029698e+000 5.247591e+000 1.098135e+000
      vertex   3.029698e+000 5.247591e+000 1.098135e+000
      vertex   -3.031089e+000 5.250000e+000 1.000000e+000
    endloop
  endfacet
  facet normal 0.000000e+000 9.972905e-001 7.356456e-002
    outer loop
      vertex   -3.029698e+000 5.247591e+000 1.098135e+000
      vertex   -3.025529e+000 5.240369e+000 1.196034e+000
      vertex   3.029698e+000 5.247591e+000 1.098135e+000
    endloop
  endfacet
  facet normal 0.000000e+000 9.996988e-001 2.454123e-002
    outer loop
      vertex   3.029698e+000 5.247591e+000 1.098135e+000
      vertex   3.031089e+000 5.250000e+000 1.000000e+000
      vertex   -3.031089e+000 5.250000e+000 1.000000e+000
    endloop
  endfacet
  facet normal 4.249385e-002 2.453384e-002 9.987955e-001
    outer loop
      vertex   3.752777e+000 -3.018419e-015 3.000000e+000
      vertex   3.979138e+000 -3.113440e-015 2.990369e+000
      vertex   1.876388e+000 3.250000e+000 3.000000e+000
    endloop
  endfacet
  facet normal 4.249385e-002 2.453384e-002 9.987955e-001
    outer loop
      vertex   1.876388e+000 3.250000e+000 3.000000e+000
      vertex   3.979138e+000 -3.113440e-015 2.990369e+000
      vertex   1.989569e+000 3.446034e+000 2.990369e+000
    endloop
  endfacet
  facet normal 1.270723e-001 7.336524e-002 9.891765e-001
    outer loop
      vertex   1.989569e+000 3.446034e+000 2.990369e+000
      vertex   3.979138e+000 -3.113440e-015 2.990369e+000
      vertex   4.203319e+000 -3.210554e-015 2.961571e+000
    endloop
  endfacet
  facet normal 2.104270e-001 1.214901e-001 9.700313e-001
    outer loop
      vertex   2.101659e+000 3.640181e+000 2.961571e+000
      vertex   4.203319e+000 -3.210554e-015 2.961571e+000
      vertex   4.423160e+000 -3.308824e-015 2.913881e+000
    endloop
  endfacet
  facet normal 2.917552e-001 1.684449e-001 9.415441e-001
    outer loop
      vertex   2.211580e+000 3.830569e+000 2.913881e+000
      vertex   4.423160e+000 -3.308824e-015 2.913881e+000
      vertex   4.636546e+000 -3.407305e-015 2.847759e+000
    endloop
  endfacet
  facet normal 3.702736e-001 2.137775e-001 9.039893e-001
    outer loop
      vertex   2.318273e+000 4.015367e+000 2.847759e+000
      vertex   4.636546e+000 -3.407305e-015 2.847759e+000
      vertex   4.841421e+000 -3.505048e-015 2.763843e+000
    endloop
  endfacet
  facet normal 4.452260e-001 2.570514e-001 8.577286e-001
    outer loop
      vertex   2.420710e+000 4.192793e+000 2.763843e+000
      vertex   4.841421e+000 -3.505048e-015 2.763843e+000
      vertex   5.035811e+000 -3.601111e-015 2.662939e+000
    endloop
  endfacet
  facet normal 5.158907e-001 2.978497e-001 8.032075e-001
    outer loop
      vertex   2.517906e+000 4.361140e+000 2.662939e+000
      vertex   5.035811e+000 -3.601111e-015 2.662939e+000
      vertex   5.217845e+000 -3.694570e-015 2.546021e+000
    endloop
  endfacet
  facet normal 5.815871e-001 3.357795e-001 7.409511e-001
    outer loop
      vertex   2.608923e+000 4.518787e+000 2.546021e+000
      vertex   5.217845e+000 -3.694570e-015 2.546021e+000
      vertex   2.692885e+000 4.664214e+000 2.414214e+000
    endloop
  endfacet
  facet normal 5.158907e-001 2.978497e-001 8.032075e-001
    outer loop
      vertex   2.608923e+000 4.518787e+000 2.546021e+000
      vertex   2.517906e+000 4.361140e+000 2.662939e+000
      vertex   5.217845e+000 -3.694570e-015 2.546021e+000
    endloop
  endfacet
  facet normal 1.270723e-001 7.336524e-002 9.891765e-001
    outer loop
      vertex   1.989569e+000 3.446034e+000 2.990369e+000
      vertex   4.203319e+000 -3.210554e-015 2.961571e+000
      vertex   2.101659e+000 3.640181e+000 2.961571e+000
    endloop
  endfacet
  facet normal 2.104270e-001 1.214901e-001 9.700313e-001
    outer loop
      vertex   2.101659e+000 3.640181e+000 2.961571e+000
      vertex   4.423160e+000 -3.308824e-015 2.913881e+000
      vertex   2.211580e+000 3.830569e+000 2.913881e+000
    endloop
  endfacet
  facet normal 2.917552e-001 1.684449e-001 9.415441e-001
    outer loop
      vertex   2.211580e+000 3.830569e+000 2.913881e+000
      vertex   4.636546e+000 -3.407305e-015 2.847759e+000
      vertex   2.318273e+000 4.015367e+000 2.847759e+000
    endloop
  endfacet
  facet normal 3.702736e-001 2.137775e-001 9.039893e-001
    outer loop
      vertex   2.318273e+000 4.015367e+000 2.847759e+000
      vertex   4.841421e+000 -3.505048e-015 2.763843e+000
      vertex   2.420710e+000 4.192793e+000 2.763843e+000
    endloop
  endfacet
  facet normal 4.452260e-001 2.570514e-001 8.577286e-001
    outer loop
      vertex   2.420710e+000 4.192793e+000 2.763843e+000
      vertex   5.035811e+000 -3.601111e-015 2.662939e+000
      vertex   2.517906e+000 4.361140e+000 2.662939e+000
    endloop
  endfacet
  facet normal 5.815871e-001 3.357795e-001 7.409511e-001
    outer loop
      vertex   5.217845e+000 -3.694570e-015 2.546021e+000
      vertex   5.385770e+000 -3.784524e-015 2.414214e+000
      vertex   2.692885e+000 4.664214e+000 2.414214e+000
    endloop
  endfacet
  facet normal 6.272164e-001 3.621235e-001 6.895405e-001
    outer loop
      vertex   2.692885e+000 4.664214e+000 2.414214e+000
      vertex   5.385770e+000 -3.784524e-015 2.414214e+000
      vertex   2.731965e+000 4.731902e+000 2.343118e+000
    endloop
  endfacet
  facet normal 6.272164e-001 3.621235e-001 6.895405e-001
    outer loop
      vertex   2.731965e+000 4.731902e+000 2.343118e+000
      vertex   5.385770e+000 -3.784524e-015 2.414214e+000
      vertex   5.463930e+000 -3.827915e-015 2.343118e+000
    endloop
  endfacet
  facet normal 6.557621e-001 3.786044e-001 6.531728e-001
    outer loop
      vertex   2.768984e+000 4.796021e+000 2.268787e+000
      vertex   5.463930e+000 -3.827915e-015 2.343118e+000
      vertex   5.537968e+000 -3.870107e-015 2.268787e+000
    endloop
  endfacet
  facet normal 6.827280e-001 3.941732e-001 6.152316e-001
    outer loop
      vertex   5.607705e+000 -3.911000e-015 2.191399e+000
      vertex   2.768984e+000 4.796021e+000 2.268787e+000
      vertex   5.537968e+000 -3.870107e-015 2.268787e+000
    endloop
  endfacet
  facet normal 6.827280e-001 3.941732e-001 6.152316e-001
    outer loop
      vertex   5.607705e+000 -3.911000e-015 2.191399e+000
      vertex   2.803853e+000 4.856415e+000 2.191399e+000
      vertex   2.768984e+000 4.796021e+000 2.268787e+000
    endloop
  endfacet
  facet normal 7.080492e-001 4.087924e-001 5.758082e-001
    outer loop
      vertex   5.607705e+000 -3.911000e-015 2.191399e+000
      vertex   2.836487e+000 4.912939e+000 2.111140e+000
      vertex   2.803853e+000 4.856415e+000 2.191399e+000
    endloop
  endfacet
  facet normal 7.080492e-001 4.087924e-001 5.758082e-001
    outer loop
      vertex   5.607705e+000 -3.911000e-015 2.191399e+000
      vertex   5.672974e+000 -3.950496e-015 2.111140e+000
      vertex   2.836487e+000 4.912939e+000 2.111140e+000
    endloop
  endfacet
  facet normal 7.316646e-001 4.224268e-001 5.349976e-001
    outer loop
      vertex   2.836487e+000 4.912939e+000 2.111140e+000
      vertex   5.672974e+000 -3.950496e-015 2.111140e+000
      vertex   5.733616e+000 -3.988497e-015 2.028205e+000
    endloop
  endfacet
  facet normal 7.535174e-001 4.350435e-001 4.928982e-001
    outer loop
      vertex   2.866808e+000 4.965457e+000 2.028205e+000
      vertex   5.733616e+000 -3.988497e-015 2.028205e+000
      vertex   2.894743e+000 5.013843e+000 1.942793e+000
    endloop
  endfacet
  facet normal 7.316646e-001 4.224268e-001 5.349976e-001
    outer loop
      vertex   2.866808e+000 4.965457e+000 2.028205e+000
      vertex   2.836487e+000 4.912939e+000 2.111140e+000
      vertex   5.733616e+000 -3.988497e-015 2.028205e+000
    endloop
  endfacet
  facet normal 6.557621e-001 3.786044e-001 6.531728e-001
    outer loop
      vertex   2.731965e+000 4.731902e+000 2.343118e+000
      vertex   5.463930e+000 -3.827915e-015 2.343118e+000
      vertex   2.768984e+000 4.796021e+000 2.268787e+000
    endloop
  endfacet
  facet normal 7.535174e-001 4.350435e-001 4.928982e-001
    outer loop
      vertex   5.733616e+000 -3.988497e-015 2.028205e+000
      vertex   5.789487e+000 -4.024915e-015 1.942793e+000
      vertex   2.894743e+000 5.013843e+000 1.942793e+000
    endloop
  endfacet
  facet normal 7.735549e-001 4.466122e-001 4.496113e-001
    outer loop
      vertex   2.894743e+000 5.013843e+000 1.942793e+000
      vertex   5.789487e+000 -4.024915e-015 1.942793e+000
      vertex   5.840451e+000 -4.059659e-015 1.855110e+000
    endloop
  endfacet
  facet normal 7.917289e-001 4.571049e-001 4.052413e-001
    outer loop
      vertex   2.920225e+000 5.057979e+000 1.855110e+000
      vertex   5.840451e+000 -4.059659e-015 1.855110e+000
      vertex   2.943193e+000 5.097759e+000 1.765367e+000
    endloop
  endfacet
  facet normal 7.735549e-001 4.466122e-001 4.496113e-001
    outer loop
      vertex   2.920225e+000 5.057979e+000 1.855110e+000
      vertex   2.894743e+000 5.013843e+000 1.942793e+000
      vertex   5.840451e+000 -4.059659e-015 1.855110e+000
    endloop
  endfacet
  facet normal 7.917289e-001 4.571049e-001 4.052413e-001
    outer loop
      vertex   5.840451e+000 -4.059659e-015 1.855110e+000
      vertex   5.886385e+000 -4.092648e-015 1.765367e+000
      vertex   2.943193e+000 5.097759e+000 1.765367e+000
    endloop
  endfacet
  facet normal 8.079955e-001 4.664964e-001 3.598950e-001
    outer loop
      vertex   2.943193e+000 5.097759e+000 1.765367e+000
      vertex   5.886385e+000 -4.092648e-015 1.765367e+000
      vertex   5.927180e+000 -4.123800e-015 1.673780e+000
    endloop
  endfacet
  facet normal 8.223155e-001 4.747641e-001 3.136817e-001
    outer loop
      vertex   2.963590e+000 5.133088e+000 1.673780e+000
      vertex   5.927180e+000 -4.123800e-015 1.673780e+000
      vertex   2.981368e+000 5.163881e+000 1.580569e+000
    endloop
  endfacet
  facet normal 8.079955e-001 4.664964e-001 3.598950e-001
    outer loop
      vertex   2.963590e+000 5.133088e+000 1.673780e+000
      vertex   2.943193e+000 5.097759e+000 1.765367e+000
      vertex   5.927180e+000 -4.123800e-015 1.673780e+000
    endloop
  endfacet
  facet normal 8.223155e-001 4.747641e-001 3.136817e-001
    outer loop
      vertex   5.927180e+000 -4.123800e-015 1.673780e+000
      vertex   5.962736e+000 -4.153042e-015 1.580569e+000
      vertex   2.981368e+000 5.163881e+000 1.580569e+000
    endloop
  endfacet
  facet normal 8.346546e-001 4.818880e-001 2.667128e-001
    outer loop
      vertex   2.981368e+000 5.163881e+000 1.580569e+000
      vertex   5.962736e+000 -4.153042e-015 1.580569e+000
      vertex   5.992968e+000 -4.180303e-015 1.485960e+000
    endloop
  endfacet
  facet normal 8.449828e-001 4.878511e-001 2.191012e-001
    outer loop
      vertex   2.996484e+000 5.190063e+000 1.485960e+000
      vertex   5.992968e+000 -4.180303e-015 1.485960e+000
      vertex   3.008902e+000 5.211571e+000 1.390181e+000
    endloop
  endfacet
  facet normal 8.346546e-001 4.818880e-001 2.667128e-001
    outer loop
      vertex   2.996484e+000 5.190063e+000 1.485960e+000
      vertex   2.981368e+000 5.163881e+000 1.580569e+000
      vertex   5.992968e+000 -4.180303e-015 1.485960e+000
    endloop
  endfacet
  facet normal 8.449828e-001 4.878511e-001 2.191012e-001
    outer loop
      vertex   5.992968e+000 -4.180303e-015 1.485960e+000
      vertex   6.017803e+000 -4.205517e-015 1.390181e+000
      vertex   3.008902e+000 5.211571e+000 1.390181e+000
    endloop
  endfacet
  facet normal 8.532755e-001 4.926388e-001 1.709619e-001
    outer loop
      vertex   3.008902e+000 5.211571e+000 1.390181e+000
      vertex   6.017803e+000 -4.205517e-015 1.390181e+000
      vertex   6.037182e+000 -4.228624e-015 1.293461e+000
    endloop
  endfacet
  facet normal 8.595125e-001 4.962398e-001 1.224107e-001
    outer loop
      vertex   3.018591e+000 5.228353e+000 1.293461e+000
      vertex   6.037182e+000 -4.228624e-015 1.293461e+000
      vertex   3.025529e+000 5.240369e+000 1.196034e+000
    endloop
  endfacet
  facet normal 8.532755e-001 4.926388e-001 1.709619e-001
    outer loop
      vertex   3.018591e+000 5.228353e+000 1.293461e+000
      vertex   3.008902e+000 5.211571e+000 1.390181e+000
      vertex   6.037182e+000 -4.228624e-015 1.293461e+000
    endloop
  endfacet
  facet normal 8.595125e-001 4.962398e-001 1.224107e-001
    outer loop
      vertex   6.037182e+000 -4.228624e-015 1.293461e+000
      vertex   6.051057e+000 -4.249567e-015 1.196034e+000
      vertex   3.025529e+000 5.240369e+000 1.196034e+000
    endloop
  endfacet
  facet normal 8.636789e-001 4.986452e-001 7.356456e-002
    outer loop
      vertex   3.025529e+000 5.240369e+000 1.196034e+000
      vertex   6.051057e+000 -4.249567e-015 1.196034e+000
      vertex   6.059396e+000 -4.268296e-015 1.098135e+000
    endloop
  endfacet
  facet normal 8.657646e-001 4.998494e-001 2.454123e-002
    outer loop
      vertex   3.029698e+000 5.247591e+000 1.098135e+000
      vertex   6.059396e+000 -4.268296e-015 1.098135e+000
      vertex   3.031089e+000 5.250000e+000 1.000000e+000
    endloop
  endfacet
  facet normal 8.636789e-001 4.986452e-001 7.356456e-002
    outer loop
      vertex   3.029698e+000 5.247591e+000 1.098135e+000
      vertex   3.025529e+000 5.240369e+000 1.196034e+000
      vertex   6.059396e+000 -4.268296e-015 1.098135e+000
    endloop
  endfacet
  facet normal 8.657646e-001 4.998494e-001 2.454123e-002
    outer loop
      vertex   6.059396e+000 -4.268296e-015 1.098135e+000
      vertex   6.062178e+000 -4.284767e-015 1.000000e+000
      vertex   3.031089e+000 5.250000e+000 1.000000e+000
    endloop
  endfacet
  facet normal 4.249385e-002 -2.453384e-002 9.987955e-001
    outer loop
      vertex   1.876388e+000 -3.250000e+000 3.000000e+000
      vertex   1.989569e+000 -3.446034e+000 2.990369e+000
      vertex   3.752777e+000 -3.018419e-015 3.000000e+000
    endloop
  endfacet
  facet normal 4.249385e-002 -2.453384e-002 9.987955e-001
    outer loop
      vertex   3.752777e+000 -3.018419e-015 3.000000e+000
      vertex   1.989569e+000 -3.446034e+000 2.990369e+000
      vertex   3.979138e+000 -3.113440e-015 2.990369e+000
    endloop
  endfacet
  facet normal 1.270723e-001 -7.336524e-002 9.891765e-001
    outer loop
      vertex   3.979138e+000 -3.113440e-015 2.990369e+000
      vertex   1.989569e+000 -3.446034e+000 2.990369e+000
      vertex   2.101659e+000 -3.640181e+000 2.961571e+000
    endloop
  endfacet
  facet normal 2.104270e-001 -1.214901e-001 9.700313e-001
    outer loop
      vertex   4.203319e+000 -3.210554e-015 2.961571e+000
      vertex   2.101659e+000 -3.640181e+000 2.961571e+000
      vertex   2.211580e+000 -3.830569e+000 2.913881e+000
    endloop
  endfacet
  facet normal 2.917552e-001 -1.684449e-001 9.415441e-001
    outer loop
      vertex   4.423160e+000 -3.308824e-015 2.913881e+000
      vertex   2.211580e+000 -3.830569e+000 2.913881e+000
      vertex   2.318273e+000 -4.015367e+000 2.847759e+000
    endloop
  endfacet
  facet normal 3.702736e-001 -2.137775e-001 9.039893e-001
    outer loop
      vertex   4.636546e+000 -3.407305e-015 2.847759e+000
      vertex   2.318273e+000 -4.015367e+000 2.847759e+000
      vertex   2.420710e+000 -4.192793e+000 2.763843e+000
    endloop
  endfacet
  facet normal 4.452260e-001 -2.570514e-001 8.577286e-001
    outer loop
      vertex   4.841421e+000 -3.505048e-015 2.763843e+000
      vertex   2.420710e+000 -4.192793e+000 2.763843e+000
      vertex   2.517906e+000 -4.361140e+000 2.662939e+000
    endloop
  endfacet
  facet normal 5.158907e-001 -2.978497e-001 8.032075e-001
    outer loop
      vertex   5.035811e+000 -3.601111e-015 2.662939e+000
      vertex   2.517906e+000 -4.361140e+000 2.662939e+000
      vertex   2.608923e+000 -4.518787e+000 2.546021e+000
    endloop
  endfacet
  facet normal 5.815871e-001 -3.357795e-001 7.409511e-001
    outer loop
      vertex   5.217845e+000 -3.694570e-015 2.546021e+000
      vertex   2.608923e+000 -4.518787e+000 2.546021e+000
      vertex   5.385770e+000 -3.784524e-015 2.414214e+000
    endloop
  endfacet
  facet normal 5.158907e-001 -2.978497e-001 8.032075e-001
    outer loop
      vertex   5.217845e+000 -3.694570e-015 2.546021e+000
      vertex   5.035811e+000 -3.601111e-015 2.662939e+000
      vertex   2.608923e+000 -4.518787e+000 2.546021e+000
    endloop
  endfacet
  facet normal 1.270723e-001 -7.336524e-002 9.891765e-001
    outer loop
      vertex   3.979138e+000 -3.113440e-015 2.990369e+000
      vertex   2.101659e+000 -3.640181e+000 2.961571e+000
      vertex   4.203319e+000 -3.210554e-015 2.961571e+000
    endloop
  endfacet
  facet normal 2.104270e-001 -1.214901e-001 9.700313e-001
    outer loop
      vertex   4.203319e+000 -3.210554e-015 2.961571e+000
      vertex   2.211580e+000 -3.830569e+000 2.913881e+000
      vertex   4.423160e+000 -3.308824e-015 2.913881e+000
    endloop
  endfacet
  facet normal 2.917552e-001 -1.684449e-001 9.415441e-001
    outer loop
      vertex   4.423160e+000 -3.308824e-015 2.913881e+000
      vertex   2.318273e+000 -4.015367e+000 2.847759e+000
      vertex   4.636546e+000 -3.407305e-015 2.847759e+000
    endloop
  endfacet
  facet normal 3.702736e-001 -2.137775e-001 9.039893e-001
    outer loop
      vertex   4.636546e+000 -3.407305e-015 2.847759e+000
      vertex   2.420710e+000 -4.192793e+000 2.763843e+000
      vertex   4.841421e+000 -3.505048e-015 2.763843e+000
    endloop
  endfacet
  facet normal 4.452260e-001 -2.570514e-001 8.577286e-001
    outer loop
      vertex   4.841421e+000 -3.505048e-015 2.763843e+000
      vertex   2.517906e+000 -4.361140e+000 2.662939e+000
      vertex   5.035811e+000 -3.601111e-015 2.662939e+000
    endloop
  endfacet
  facet normal 5.815871e-001 -3.357795e-001 7.409511e-001
    outer loop
      vertex   2.608923e+000 -4.518787e+000 2.546021e+000
      vertex   2.692885e+000 -4.664214e+000 2.414214e+000
      vertex   5.385770e+000 -3.784524e-015 2.414214e+000
    endloop
  endfacet
  facet normal 6.272164e-001 -3.621235e-001 6.895405e-001
    outer loop
      vertex   5.385770e+000 -3.784524e-015 2.414214e+000
      vertex   2.692885e+000 -4.664214e+000 2.414214e+000
      vertex   5.463930e+000 -3.827915e-015 2.343118e+000
    endloop
  endfacet
  facet normal 6.272164e-001 -3.621235e-001 6.895405e-001
    outer loop
      vertex   5.463930e+000 -3.827915e-015 2.343118e+000
      vertex   2.692885e+000 -4.664214e+000 2.414214e+000
      vertex   2.731965e+000 -4.731902e+000 2.343118e+000
    endloop
  endfacet
  facet normal 6.557621e-001 -3.786044e-001 6.531728e-001
    outer loop
      vertex   5.537968e+000 -3.870107e-015 2.268787e+000
      vertex   2.731965e+000 -4.731902e+000 2.343118e+000
      vertex   2.768984e+000 -4.796021e+000 2.268787e+000
    endloop
  endfacet
  facet normal 6.827280e-001 -3.941732e-001 6.152316e-001
    outer loop
      vertex   2.803853e+000 -4.856415e+000 2.191399e+000
      vertex   5.537968e+000 -3.870107e-015 2.268787e+000
      vertex   2.768984e+000 -4.796021e+000 2.268787e+000
    endloop
  endfacet
  facet normal 6.827280e-001 -3.941732e-001 6.152316e-001
    outer loop
      vertex   2.803853e+000 -4.856415e+000 2.191399e+000
      vertex   5.607705e+000 -3.911000e-015 2.191399e+000
      vertex   5.537968e+000 -3.870107e-015 2.268787e+000
    endloop
  endfacet
  facet normal 7.080492e-001 -4.087924e-001 5.758082e-001
    outer loop
      vertex   2.803853e+000 -4.856415e+000 2.191399e+000
      vertex   5.672974e+000 -3.950496e-015 2.111140e+000
      vertex   5.607705e+000 -3.911000e-015 2.191399e+000
    endloop
  endfacet
  facet normal 7.080492e-001 -4.087924e-001 5.758082e-001
    outer loop
      vertex   2.803853e+000 -4.856415e+000 2.191399e+000
      vertex   2.836487e+000 -4.912939e+000 2.111140e+000
      vertex   5.672974e+000 -3.950496e-015 2.111140e+000
    endloop
  endfacet
  facet normal 7.316646e-001 -4.224268e-001 5.349976e-001
    outer loop
      vertex   5.672974e+000 -3.950496e-015 2.111140e+000
      vertex   2.836487e+000 -4.912939e+000 2.111140e+000
      vertex   2.866808e+000 -4.965457e+000 2.028205e+000
    endloop
  endfacet
  facet normal 7.535174e-001 -4.350435e-001 4.928982e-001
    outer loop
      vertex   5.733616e+000 -3.988497e-015 2.028205e+000
      vertex   2.866808e+000 -4.965457e+000 2.028205e+000
      vertex   5.789487e+000 -4.024915e-015 1.942793e+000
    endloop
  endfacet
  facet normal 7.316646e-001 -4.224268e-001 5.349976e-001
    outer loop
      vertex   5.733616e+000 -3.988497e-015 2.028205e+000
      vertex   5.672974e+000 -3.950496e-015 2.111140e+000
      vertex   2.866808e+000 -4.965457e+000 2.028205e+000
    endloop
  endfacet
  facet normal 6.557621e-001 -3.786044e-001 6.531728e-001
    outer loop
      vertex   5.463930e+000 -3.827915e-015 2.343118e+000
      vertex   2.731965e+000 -4.731902e+000 2.343118e+000
      vertex   5.537968e+000 -3.870107e-015 2.268787e+000
    endloop
  endfacet
  facet normal 7.535174e-001 -4.350435e-001 4.928982e-001
    outer loop
      vertex   2.866808e+000 -4.965457e+000 2.028205e+000
      vertex   2.894743e+000 -5.013843e+000 1.942793e+000
      vertex   5.789487e+000 -4.024915e-015 1.942793e+000
    endloop
  endfacet
  facet normal 7.735549e-001 -4.466122e-001 4.496113e-001
    outer loop
      vertex   5.789487e+000 -4.024915e-015 1.942793e+000
      vertex   2.894743e+000 -5.013843e+000 1.942793e+000
      vertex   2.920225e+000 -5.057979e+000 1.855110e+000
    endloop
  endfacet
  facet normal 7.917289e-001 -4.571049e-001 4.052413e-001
    outer loop
      vertex   5.840451e+000 -4.059659e-015 1.855110e+000
      vertex   2.920225e+000 -5.057979e+000 1.855110e+000
      vertex   5.886385e+000 -4.092648e-015 1.765367e+000
    endloop
  endfacet
  facet normal 7.735549e-001 -4.466122e-001 4.496113e-001
    outer loop
      vertex   5.840451e+000 -4.059659e-015 1.855110e+000
      vertex   5.789487e+000 -4.024915e-015 1.942793e+000
      vertex   2.920225e+000 -5.057979e+000 1.855110e+000
    endloop
  endfacet
  facet normal 7.917289e-001 -4.571049e-001 4.052413e-001
    outer loop
      vertex   2.920225e+000 -5.057979e+000 1.855110e+000
      vertex   2.943193e+000 -5.097759e+000 1.765367e+000
      vertex   5.886385e+000 -4.092648e-015 1.765367e+000
    endloop
  endfacet
  facet normal 8.079955e-001 -4.664964e-001 3.598950e-001
    outer loop
      vertex   5.886385e+000 -4.092648e-015 1.765367e+000
      vertex   2.943193e+000 -5.097759e+000 1.765367e+000
      vertex   2.963590e+000 -5.133088e+000 1.673780e+000
    endloop
  endfacet
  facet normal 8.223155e-001 -4.747641e-001 3.136817e-001
    outer loop
      vertex   5.927180e+000 -4.123800e-015 1.673780e+000
      vertex   2.963590e+000 -5.133088e+000 1.673780e+000
      vertex   5.962736e+000 -4.153042e-015 1.580569e+000
    endloop
  endfacet
  facet normal 8.079955e-001 -4.664964e-001 3.598950e-001
    outer loop
      vertex   5.927180e+000 -4.123800e-015 1.673780e+000
      vertex   5.886385e+000 -4.092648e-015 1.765367e+000
      vertex   2.963590e+000 -5.133088e+000 1.673780e+000
    endloop
  endfacet
  facet normal 8.223155e-001 -4.747641e-001 3.136817e-001
    outer loop
      vertex   2.963590e+000 -5.133088e+000 1.673780e+000
      vertex   2.981368e+000 -5.163881e+000 1.580569e+000
      vertex   5.962736e+000 -4.153042e-015 1.580569e+000
    endloop
  endfacet
  facet normal 8.346546e-001 -4.818880e-001 2.667128e-001
    outer loop
      vertex   5.962736e+000 -4.153042e-015 1.580569e+000
      vertex   2.981368e+000 -5.163881e+000 1.580569e+000
      vertex   2.996484e+000 -5.190063e+000 1.485960e+000
    endloop
  endfacet
  facet normal 8.449828e-001 -4.878511e-001 2.191012e-001
    outer loop
      vertex   5.992968e+000 -4.180303e-015 1.485960e+000
      vertex   2.996484e+000 -5.190063e+000 1.485960e+000
      vertex   6.017803e+000 -4.205517e-015 1.390181e+000
    endloop
  endfacet
  facet normal 8.346546e-001 -4.818880e-001 2.667128e-001
    outer loop
      vertex   5.992968e+000 -4.180303e-015 1.485960e+000
      vertex   5.962736e+000 -4.153042e-015 1.580569e+000
      vertex   2.996484e+000 -5.190063e+000 1.485960e+000
    endloop
  endfacet
  facet normal 8.449828e-001 -4.878511e-001 2.191012e-001
    outer loop
      vertex   2.996484e+000 -5.190063e+000 1.485960e+000
      vertex   3.008902e+000 -5.211571e+000 1.390181e+000
      vertex   6.017803e+000 -4.205517e-015 1.390181e+000
    endloop
  endfacet
  facet normal 8.532755e-001 -4.926388e-001 1.709619e-001
    outer loop
      vertex   6.017803e+000 -4.205517e-015 1.390181e+000
      vertex   3.008902e+000 -5.211571e+000 1.390181e+000
      vertex   3.018591e+000 -5.228353e+000 1.293461e+000
    endloop
  endfacet
  facet normal 8.595125e-001 -4.962398e-001 1.224107e-001
    outer loop
      vertex   6.037182e+000 -4.228624e-015 1.293461e+000
      vertex   3.018591e+000 -5.228353e+000 1.293461e+000
      vertex   6.051057e+000 -4.249567e-015 1.196034e+000
    endloop
  endfacet
  facet normal 8.532755e-001 -4.926388e-001 1.709619e-001
    outer loop
      vertex   6.037182e+000 -4.228624e-015 1.293461e+000
      vertex   6.017803e+000 -4.205517e-015 1.390181e+000
      vertex   3.018591e+000 -5.228353e+000 1.293461e+000
    endloop
  endfacet
  facet normal 8.595125e-001 -4.962398e-001 1.224107e-001
    outer loop
      vertex   3.018591e+000 -5.228353e+000 1.293461e+000
      vertex   3.025529e+000 -5.240369e+000 1.196034e+000
      vertex   6.051057e+000 -4.249567e-015 1.196034e+000
    endloop
  endfacet
  facet normal 8.636789e-001 -4.986452e-001 7.356456e-002
    outer loop
      vertex   6.051057e+000 -4.249567e-015 1.196034e+000
      vertex   3.025529e+000 -5.240369e+000 1.196034e+000
      vertex   3.029698e+000 -5.247591e+000 1.098135e+000
    endloop
  endfacet
  facet normal 8.657646e-001 -4.998494e-001 2.454123e-002
    outer loop
      vertex   6.059396e+000 -4.268296e-015 1.098135e+000
      vertex   3.029698e+000 -5.247591e+000 1.098135e+000
      vertex   6.062178e+000 -4.284767e-015 1.000000e+000
    endloop
  endfacet
  facet normal 8.636789e-001 -4.986452e-001 7.356456e-002
    outer loop
      vertex   6.059396e+000 -4.268296e-015 1.098135e+000
      vertex   6.051057e+000 -4.249567e-015 1.196034e+000
      vertex   3.029698e+000 -5.247591e+000 1.098135e+000
    endloop
  endfacet
  facet normal 8.657646e-001 -4.998494e-001 2.454123e-002
    outer loop
      vertex   3.029698e+000 -5.247591e+000 1.098135e+000
      vertex   3.031089e+000 -5.250000e+000 1.000000e+000
      vertex   6.062178e+000 -4.284767e-015 1.000000e+000
    endloop
  endfacet
  facet normal -2.325729e-017 -4.906767e-002 9.987955e-001
    outer loop
      vertex   -1.876388e+000 -3.250000e+000 3.000000e+000
      vertex   -1.989569e+000 -3.446034e+000 2.990369e+000
      vertex   1.876388e+000 -3.250000e+000 3.000000e+000
    endloop
  endfacet
  facet normal 2.065114e-016 -4.906767e-002 9.987955e-001
    outer loop
      vertex   1.876388e+000 -3.250000e+000 3.000000e+000
      vertex   -1.989569e+000 -3.446034e+000 2.990369e+000
      vertex   1.989569e+000 -3.446034e+000 2.990369e+000
    endloop
  endfacet
  facet normal 1.716656e-016 -1.467305e-001 9.891765e-001
    outer loop
      vertex   1.989569e+000 -3.446034e+000 2.990369e+000
      vertex   -1.989569e+000 -3.446034e+000 2.990369e+000
      vertex   -2.101659e+000 -3.640181e+000 2.961571e+000
    endloop
  endfacet
  facet normal 1.279575e-016 -2.429802e-001 9.700313e-001
    outer loop
      vertex   2.101659e+000 -3.640181e+000 2.961571e+000
      vertex   -2.101659e+000 -3.640181e+000 2.961571e+000
      vertex   -2.211580e+000 -3.830569e+000 2.913881e+000
    endloop
  endfacet
  facet normal 5.376755e-017 -3.368899e-001 9.415441e-001
    outer loop
      vertex   2.211580e+000 -3.830569e+000 2.913881e+000
      vertex   -2.211580e+000 -3.830569e+000 2.913881e+000
      vertex   -2.318273e+000 -4.015367e+000 2.847759e+000
    endloop
  endfacet
  facet normal -7.722095e-017 -4.275551e-001 9.039893e-001
    outer loop
      vertex   2.318273e+000 -4.015367e+000 2.847759e+000
      vertex   -2.318273e+000 -4.015367e+000 2.847759e+000
      vertex   -2.420710e+000 -4.192793e+000 2.763843e+000
    endloop
  endfacet
  facet normal -3.127468e-017 -5.141027e-001 8.577286e-001
    outer loop
      vertex   2.420710e+000 -4.192793e+000 2.763843e+000
      vertex   -2.420710e+000 -4.192793e+000 2.763843e+000
      vertex   -2.517906e+000 -4.361140e+000 2.662939e+000
    endloop
  endfacet
  facet normal 2.365629e-018 -5.956993e-001 8.032075e-001
    outer loop
      vertex   2.517906e+000 -4.361140e+000 2.662939e+000
      vertex   -2.517906e+000 -4.361140e+000 2.662939e+000
      vertex   -2.608923e+000 -4.518787e+000 2.546021e+000
    endloop
  endfacet
  facet normal 1.181189e-017 -6.715590e-001 7.409511e-001
    outer loop
      vertex   2.608923e+000 -4.518787e+000 2.546021e+000
      vertex   -2.608923e+000 -4.518787e+000 2.546021e+000
      vertex   2.692885e+000 -4.664214e+000 2.414214e+000
    endloop
  endfacet
  facet normal 3.387767e-017 -5.956993e-001 8.032075e-001
    outer loop
      vertex   2.608923e+000 -4.518787e+000 2.546021e+000
      vertex   2.517906e+000 -4.361140e+000 2.662939e+000
      vertex   -2.608923e+000 -4.518787e+000 2.546021e+000
    endloop
  endfacet
  facet normal 1.625099e-016 -1.467305e-001 9.891765e-001
    outer loop
      vertex   1.989569e+000 -3.446034e+000 2.990369e+000
      vertex   -2.101659e+000 -3.640181e+000 2.961571e+000
      vertex   2.101659e+000 -3.640181e+000 2.961571e+000
    endloop
  endfacet
  facet normal 9.720229e-017 -2.429802e-001 9.700313e-001
    outer loop
      vertex   2.101659e+000 -3.640181e+000 2.961571e+000
      vertex   -2.211580e+000 -3.830569e+000 2.913881e+000
      vertex   2.211580e+000 -3.830569e+000 2.913881e+000
    endloop
  endfacet
  facet normal -3.888822e-017 -3.368899e-001 9.415441e-001
    outer loop
      vertex   2.211580e+000 -3.830569e+000 2.913881e+000
      vertex   -2.318273e+000 -4.015367e+000 2.847759e+000
      vertex   2.318273e+000 -4.015367e+000 2.847759e+000
    endloop
  endfacet
  facet normal 8.967072e-018 -4.275551e-001 9.039893e-001
    outer loop
      vertex   2.318273e+000 -4.015367e+000 2.847759e+000
      vertex   -2.420710e+000 -4.192793e+000 2.763843e+000
      vertex   2.420710e+000 -4.192793e+000 2.763843e+000
    endloop
  endfacet
  facet normal 4.557243e-017 -5.141027e-001 8.577286e-001
    outer loop
      vertex   2.420710e+000 -4.192793e+000 2.763843e+000
      vertex   -2.517906e+000 -4.361140e+000 2.662939e+000
      vertex   2.517906e+000 -4.361140e+000 2.662939e+000
    endloop
  endfacet
  facet normal -1.604005e-016 -6.715590e-001 7.409511e-001
    outer loop
      vertex   -2.608923e+000 -4.518787e+000 2.546021e+000
      vertex   -2.692885e+000 -4.664214e+000 2.414214e+000
      vertex   2.692885e+000 -4.664214e+000 2.414214e+000
    endloop
  endfacet
  facet normal -1.820174e-016 -7.242471e-001 6.895405e-001
    outer loop
      vertex   2.692885e+000 -4.664214e+000 2.414214e+000
      vertex   -2.692885e+000 -4.664214e+000 2.414214e+000
      vertex   2.731965e+000 -4.731902e+000 2.343118e+000
    endloop
  endfacet
  facet normal 5.013033e-017 -7.242471e-001 6.895405e-001
    outer loop
      vertex   2.731965e+000 -4.731902e+000 2.343118e+000
      vertex   -2.692885e+000 -4.664214e+000 2.414214e+000
      vertex   -2.731965e+000 -4.731902e+000 2.343118e+000
    endloop
  endfacet
  facet normal -8.615635e-017 -7.572088e-001 6.531728e-001
    outer loop
      vertex   2.768984e+000 -4.796021e+000 2.268787e+000
      vertex   -2.731965e+000 -4.731902e+000 2.343118e+000
      vertex   -2.768984e+000 -4.796021e+000 2.268787e+000
    endloop
  endfacet
  facet normal -1.048636e-016 -7.883464e-001 6.152316e-001
    outer loop
      vertex   -2.803853e+000 -4.856415e+000 2.191399e+000
      vertex   2.768984e+000 -4.796021e+000 2.268787e+000
      vertex   -2.768984e+000 -4.796021e+000 2.268787e+000
    endloop
  endfacet
  facet normal -1.035596e-016 -7.883464e-001 6.152316e-001
    outer loop
      vertex   -2.803853e+000 -4.856415e+000 2.191399e+000
      vertex   2.803853e+000 -4.856415e+000 2.191399e+000
      vertex   2.768984e+000 -4.796021e+000 2.268787e+000
    endloop
  endfacet
  facet normal -1.229004e-016 -8.175848e-001 5.758082e-001
    outer loop
      vertex   -2.803853e+000 -4.856415e+000 2.191399e+000
      vertex   2.836487e+000 -4.912939e+000 2.111140e+000
      vertex   2.803853e+000 -4.856415e+000 2.191399e+000
    endloop
  endfacet
  facet normal -2.560073e-016 -8.175848e-001 5.758082e-001
    outer loop
      vertex   -2.803853e+000 -4.856415e+000 2.191399e+000
      vertex   -2.836487e+000 -4.912939e+000 2.111140e+000
      vertex   2.836487e+000 -4.912939e+000 2.111140e+000
    endloop
  endfacet
  facet normal -2.645458e-016 -8.448536e-001 5.349976e-001
    outer loop
      vertex   2.836487e+000 -4.912939e+000 2.111140e+000
      vertex   -2.836487e+000 -4.912939e+000 2.111140e+000
      vertex   -2.866808e+000 -4.965457e+000 2.028205e+000
    endloop
  endfacet
  facet normal -1.729595e-016 -8.700870e-001 4.928982e-001
    outer loop
      vertex   2.866808e+000 -4.965457e+000 2.028205e+000
      vertex   -2.866808e+000 -4.965457e+000 2.028205e+000
      vertex   2.894743e+000 -5.013843e+000 1.942793e+000
    endloop
  endfacet
  facet normal -1.725971e-016 -8.448536e-001 5.349976e-001
    outer loop
      vertex   2.866808e+000 -4.965457e+000 2.028205e+000
      vertex   2.836487e+000 -4.912939e+000 2.111140e+000
      vertex   -2.866808e+000 -4.965457e+000 2.028205e+000
    endloop
  endfacet
  facet normal 3.617625e-017 -7.572088e-001 6.531728e-001
    outer loop
      vertex   2.731965e+000 -4.731902e+000 2.343118e+000
      vertex   -2.731965e+000 -4.731902e+000 2.343118e+000
      vertex   2.768984e+000 -4.796021e+000 2.268787e+000
    endloop
  endfacet
  facet normal -1.145779e-016 -8.700870e-001 4.928982e-001
    outer loop
      vertex   -2.866808e+000 -4.965457e+000 2.028205e+000
      vertex   -2.894743e+000 -5.013843e+000 1.942793e+000
      vertex   2.894743e+000 -5.013843e+000 1.942793e+000
    endloop
  endfacet
  facet normal -1.197876e-016 -8.932243e-001 4.496113e-001
    outer loop
      vertex   2.894743e+000 -5.013843e+000 1.942793e+000
      vertex   -2.894743e+000 -5.013843e+000 1.942793e+000
      vertex   -2.920225e+000 -5.057979e+000 1.855110e+000
    endloop
  endfacet
  facet normal -2.010212e-016 -9.142098e-001 4.052413e-001
    outer loop
      vertex   2.920225e+000 -5.057979e+000 1.855110e+000
      vertex   -2.920225e+000 -5.057979e+000 1.855110e+000
      vertex   2.943193e+000 -5.097759e+000 1.765367e+000
    endloop
  endfacet
  facet normal -1.860813e-016 -8.932243e-001 4.496113e-001
    outer loop
      vertex   2.920225e+000 -5.057979e+000 1.855110e+000
      vertex   2.894743e+000 -5.013843e+000 1.942793e+000
      vertex   -2.920225e+000 -5.057979e+000 1.855110e+000
    endloop
  endfacet
  facet normal -3.221084e-016 -9.142098e-001 4.052413e-001
    outer loop
      vertex   -2.920225e+000 -5.057979e+000 1.855110e+000
      vertex   -2.943193e+000 -5.097759e+000 1.765367e+000
      vertex   2.943193e+000 -5.097759e+000 1.765367e+000
    endloop
  endfacet
  facet normal -3.408740e-016 -9.329928e-001 3.598950e-001
    outer loop
      vertex   2.943193e+000 -5.097759e+000 1.765367e+000
      vertex   -2.943193e+000 -5.097759e+000 1.765367e+000
      vertex   -2.963590e+000 -5.133088e+000 1.673780e+000
    endloop
  endfacet
  facet normal -3.798511e-016 -9.495282e-001 3.136817e-001
    outer loop
      vertex   2.963590e+000 -5.133088e+000 1.673780e+000
      vertex   -2.963590e+000 -5.133088e+000 1.673780e+000
      vertex   2.981368e+000 -5.163881e+000 1.580569e+000
    endloop
  endfacet
  facet normal -3.652262e-016 -9.329928e-001 3.598950e-001
    outer loop
      vertex   2.963590e+000 -5.133088e+000 1.673780e+000
      vertex   2.943193e+000 -5.097759e+000 1.765367e+000
      vertex   -2.963590e+000 -5.133088e+000 1.673780e+000
    endloop
  endfacet
  facet normal -9.471241e-017 -9.495282e-001 3.136817e-001
    outer loop
      vertex   -2.963590e+000 -5.133088e+000 1.673780e+000
      vertex   -2.981368e+000 -5.163881e+000 1.580569e+000
      vertex   2.981368e+000 -5.163881e+000 1.580569e+000
    endloop
  endfacet
  facet normal -1.038310e-016 -9.637761e-001 2.667128e-001
    outer loop
      vertex   2.981368e+000 -5.163881e+000 1.580569e+000
      vertex   -2.981368e+000 -5.163881e+000 1.580569e+000
      vertex   -2.996484e+000 -5.190063e+000 1.485960e+000
    endloop
  endfacet
  facet normal -2.567333e-016 -9.757021e-001 2.191012e-001
    outer loop
      vertex   2.996484e+000 -5.190063e+000 1.485960e+000
      vertex   -2.996484e+000 -5.190063e+000 1.485960e+000
      vertex   3.008902e+000 -5.211571e+000 1.390181e+000
    endloop
  endfacet
  facet normal -2.462173e-016 -9.637761e-001 2.667128e-001
    outer loop
      vertex   2.996484e+000 -5.190063e+000 1.485960e+000
      vertex   2.981368e+000 -5.163881e+000 1.580569e+000
      vertex   -2.996484e+000 -5.190063e+000 1.485960e+000
    endloop
  endfacet
  facet normal -2.637581e-016 -9.757021e-001 2.191012e-001
    outer loop
      vertex   -2.996484e+000 -5.190063e+000 1.485960e+000
      vertex   -3.008902e+000 -5.211571e+000 1.390181e+000
      vertex   3.008902e+000 -5.211571e+000 1.390181e+000
    endloop
  endfacet
  facet normal -2.719134e-016 -9.852776e-001 1.709619e-001
    outer loop
      vertex   3.008902e+000 -5.211571e+000 1.390181e+000
      vertex   -3.008902e+000 -5.211571e+000 1.390181e+000
      vertex   -3.018591e+000 -5.228353e+000 1.293461e+000
    endloop
  endfacet
  facet normal -2.785167e-016 -9.924795e-001 1.224107e-001
    outer loop
      vertex   3.018591e+000 -5.228353e+000 1.293461e+000
      vertex   -3.018591e+000 -5.228353e+000 1.293461e+000
      vertex   3.025529e+000 -5.240369e+000 1.196034e+000
    endloop
  endfacet
  facet normal -2.707581e-016 -9.852776e-001 1.709619e-001
    outer loop
      vertex   3.018591e+000 -5.228353e+000 1.293461e+000
      vertex   3.008902e+000 -5.211571e+000 1.390181e+000
      vertex   -3.018591e+000 -5.228353e+000 1.293461e+000
    endloop
  endfacet
  facet normal -2.778780e-016 -9.924795e-001 1.224107e-001
    outer loop
      vertex   -3.018591e+000 -5.228353e+000 1.293461e+000
      vertex   -3.025529e+000 -5.240369e+000 1.196034e+000
      vertex   3.025529e+000 -5.240369e+000 1.196034e+000
    endloop
  endfacet
  facet normal -2.846676e-016 -9.972905e-001 7.356456e-002
    outer loop
      vertex   3.025529e+000 -5.240369e+000 1.196034e+000
      vertex   -3.025529e+000 -5.240369e+000 1.196034e+000
      vertex   -3.029698e+000 -5.247591e+000 1.098135e+000
    endloop
  endfacet
  facet normal -2.903712e-016 -9.996988e-001 2.454123e-002
    outer loop
      vertex   3.029698e+000 -5.247591e+000 1.098135e+000
      vertex   -3.029698e+000 -5.247591e+000 1.098135e+000
      vertex   3.031089e+000 -5.250000e+000 1.000000e+000
    endloop
  endfacet
  facet normal -2.843474e-016 -9.972905e-001 7.356456e-002
    outer loop
      vertex   3.029698e+000 -5.247591e+000 1.098135e+000
      vertex   3.025529e+000 -5.240369e+000 1.196034e+000
      vertex   -3.029698e+000 -5.247591e+000 1.098135e+000
    endloop
  endfacet
  facet normal -5.858693e-016 -9.996988e-001 2.454123e-002
    outer loop
      vertex   -3.029698e+000 -5.247591e+000 1.098135e+000
      vertex   -3.031089e+000 -5.250000e+000 1.000000e+000
      vertex   3.031089e+000 -5.250000e+000 1.000000e+000
    endloop
  endfacet
  facet normal 8.660254e-001 -5.000000e-001 0.000000e+000
    outer loop
      vertex   3.031089e+000 -5.250000e+000 1.000000e+000
      vertex   3.031089e+000 -5.250000e+000 0.000000e+000
      vertex   6.062178e+000 -4.284767e-015 1.000000e+000
    endloop
  endfacet
  facet normal 8.660254e-001 -5.000000e-001 0.000000e+000
    outer loop
      vertex   6.062178e+000 -4.284767e-015 1.000000e+000
      vertex   3.031089e+000 -5.250000e+000 0.000000e+000
      vertex   6.062178e+000 -4.284767e-015 0.000000e+000
    endloop
  endfacet
  facet normal -5.860458e-016 -1.000000e+000 -0.000000e+000
    outer loop
      vertex   -3.031089e+000 -5.250000e+000 1.000000e+000
      vertex   -3.031089e+000 -5.250000e+000 0.000000e+000
      vertex   3.031089e+000 -5.250000e+000 1.000000e+000
    endloop
  endfacet
  facet normal -5.860458e-016 -1.000000e+000 0.000000e+000
    outer loop
      vertex   3.031089e+000 -5.250000e+000 1.000000e+000
      vertex   -3.031089e+000 -5.250000e+000 0.000000e+000
      vertex   3.031089e+000 -5.250000e+000 0.000000e+000
    endloop
  endfacet
  facet normal -8.660254e-001 -5.000000e-001 -0.000000e+000
    outer loop
      vertex   -6.062178e+000 1.561251e-015 1.000000e+000
      vertex   -6.062178e+000 1.561251e-015 0.000000e+000
      vertex   -3.031089e+000 -5.250000e+000 1.000000e+000
    endloop
  endfacet
  facet normal -8.660254e-001 -5.000000e-001 0.000000e+000
    outer loop
      vertex   -3.031089e+000 -5.250000e+000 1.000000e+000
      vertex   -6.062178e+000 1.561251e-015 0.000000e+000
      vertex   -3.031089e+000 -5.250000e+000 0.000000e+000
    endloop
  endfacet
  facet normal -0.000000e+000 -0.000000e+000 1.000000e+000
    outer loop
      vertex   -1.876388e+000 -3.250000e+000 3.000000e+000
      vertex   1.876388e+000 -3.250000e+000 3.000000e+000
      vertex   -3.752777e+000 6.245005e-016 3.000000e+000
    endloop
  endfacet
  facet normal -0.000000e+000 0.000000e+000 1.000000e+000
    outer loop
      vertex   -3.752777e+000 6.245005e-016 3.000000e+000
      vertex   1.876388e+000 -3.250000e+000 3.000000e+000
      vertex   3.752777e+000 -3.018419e-015 3.000000e+000
    endloop
  endfacet
  facet normal -0.000000e+000 -0.000000e+000 1.000000e+000
    outer loop
      vertex   -1.876388e+000 3.250000e+000 3.000000e+000
      vertex   3.752777e+000 -3.018419e-015 3.000000e+000
      vertex   1.876388e+000 3.250000e+000 3.000000e+000
    endloop
  endfacet
  facet normal 0.000000e+000 0.000000e+000 1.000000e+000
    outer loop
      vertex   -1.876388e+000 3.250000e+000 3.000000e+000
      vertex   -3.752777e+000 6.245005e-016 3.000000e+000
      vertex   3.752777e+000 -3.018419e-015 3.000000e+000
    endloop
  endfacet
  facet normal -8.660254e-001 5.000000e-001 0.000000e+000
    outer loop
      vertex   -3.031089e+000 5.250000e+000 1.000000e+000
      vertex   -3.031089e+000 5.250000e+000 0.000000e+000
      vertex   -6.062178e+000 1.561251e-015 1.000000e+000
    endloop
  endfacet
  facet normal -8.660254e-001 5.000000e-001 0.000000e+000
    outer loop
      vertex   -6.062178e+000 1.561251e-015 1.000000e+000
      vertex   -3.031089e+000 5.250000e+000 0.000000e+000
      vertex   -6.062178e+000 1.561251e-015 0.000000e+000
    endloop
  endfacet
  facet normal 0.000000e+000 1.000000e+000 0.000000e+000
    outer loop
      vertex   3.031089e+000 5.250000e+000 1.000000e+000
      vertex   3.031089e+000 5.250000e+000 0.000000e+000
      vertex   -3.031089e+000 5.250000e+000 1.000000e+000
    endloop
  endfacet
  facet normal 0.000000e+000 1.000000e+000 0.000000e+000
    outer loop
      vertex   -3.031089e+000 5.250000e+000 1.000000e+000
      vertex   3.031089e+000 5.250000e+000 0.000000e+000
      vertex   -3.031089e+000 5.250000e+000 0.000000e+000
    endloop
  endfacet
  facet normal 8.660254e-001 5.000000e-001 0.000000e+000
    outer loop
      vertex   6.062178e+000 -4.284767e-015 1.000000e+000
      vertex   6.062178e+000 -4.284767e-015 0.000000e+000
      vertex   3.031089e+000 5.250000e+000 1.000000e+000
    endloop
  endfacet
  facet normal 8.660254e-001 5.000000e-001 0.000000e+000
    outer loop
      vertex   3.031089e+000 5.250000e+000 1.000000e+000
      vertex   6.062178e+000 -4.284767e-015 0.000000e+000
      vertex   3.031089e+000 5.250000e+000 0.000000e+000
    endloop
  endfacet
  facet normal 0.000000e+000 -0.000000e+000 -1.000000e+000
    outer loop
      vertex   -3.031089e+000 5.250000e+000 0.000000e+000
      vertex   3.031089e+000 5.250000e+000 0.000000e+000
      vertex   -6.062178e+000 1.561251e-015 0.000000e+000
    endloop
  endfacet
  facet normal 0.000000e+000 0.000000e+000 -1.000000e+000
    outer loop
      vertex   -6.062178e+000 1.561251e-015 0.000000e+000
      vertex   3.031089e+000 5.250000e+000 0.000000e+000
      vertex   6.062178e+000 -4.284767e-015 0.000000e+000
    endloop
  endfacet
  facet normal 0.000000e+000 -0.000000e+000 -1.000000e+000
    outer loop
      vertex   -3.031089e+000 -5.250000e+000 0.000000e+000
      vertex   6.062178e+000 -4.284767e-015 0.000000e+000
      vertex   3.031089e+000 -5.250000e+000 0.000000e+000
    endloop
  endfacet
  facet normal 0.000000e+000 0.000000e+000 -1.000000e+000
    outer loop
      vertex   -3.031089e+000 -5.250000e+000 0.000000e+000
      vertex   -6.062178e+000 1.561251e-015 0.000000e+000
      vertex   6.062178e+000 -4.284767e-015 0.000000e+000
    endloop
  endfacet
endsolid